src/bar.vcd
$date
    Sun Feb  3 07:14:11 2013
$end
$version
    immediate C @(#)     $Id: bar.vcd,v 1.1 2013/02/03 07:14:30 jw Exp $
$end
$timescale
     1 us
$end

$scope module bar $end
$var integer 8 3 IB1 $end
$var wire 1 5 IX0.0 $end
$var wire 1 6 IX0.1 $end
$var wire 1 7 IX0.2 $end
$var wire 1 8 IX0.3 $end
$var wire 1 9 IX0.4 $end
$var wire 1 11 IX2.0 $end
$var wire 1 12 IX2.1 $end
$var wire 1 13 IX2.2 $end
$var wire 1 14 IX2.3 $end
$var wire 1 15 IX2.4 $end
$var wire 1 16 IX2.5 $end
$var wire 1 17 IX2.6 $end
$var wire 1 18 IX2.7 $end
$var integer 8 19 QB1 $end
$scope module QB1 $end
$var integer 32 21 QB1_1 $end
$var wire 1 22 QB1_2 $end
$var wire 1 23 QB1_3 $end
$var integer 32 24 QB1_4 $end
$var integer 32 25 QB1_5 $end
$var wire 1 26 QB1_6 $end
$upscope $end
$var wire 1 89 QX0.0 $end
$scope module QX0_0 $end
$var wire 1 29 QX0.0_0 $end
$upscope $end
$var wire 1 92 QX0.1 $end
$scope module QX0_1 $end
$var wire 1 31 QX0.1_0 $end
$upscope $end
$var wire 1 95 QX0.2 $end
$scope module QX0_2 $end
$var wire 1 33 QX0.2_0 $end
$upscope $end
$var wire 1 98 QX0.3 $end
$scope module QX0_3 $end
$var wire 1 35 QX0.3_0 $end
$upscope $end
$var wire 1 101 QX0.4 $end
$scope module QX0_4 $end
$var wire 1 37 QX0.4_0 $end
$upscope $end
$var wire 1 104 QX0.5 $end
$scope module QX0_5 $end
$var wire 1 39 QX0.5_0 $end
$upscope $end
$var wire 1 107 QX0.6 $end
$scope module QX0_6 $end
$var wire 1 41 QX0.6_0 $end
$upscope $end
$var wire 1 110 QX0.7 $end
$scope module QX0_7 $end
$var wire 1 43 QX0.7_0 $end
$upscope $end
$var wire 1 113 QX2.0 $end
$scope module QX2_0 $end
$var wire 1 46 QX2.0_0 $end
$upscope $end
$var wire 1 87 QX2.1 $end
$scope module QX2_1 $end
$var wire 1 48 QX2.1_0 $end
$upscope $end
$var wire 1 49 QX2.2 $end
$scope module QX2_2 $end
$var wire 1 50 QX2.2_0 $end
$var wire 1 51 QX2.2_1 $end
$var wire 1 52 QX2.2_2 $end
$upscope $end
$var wire 1 53 QX2.3 $end
$scope module QX2_3 $end
$var wire 1 54 QX2.3_0 $end
$var wire 1 55 QX2.3_1 $end
$var wire 1 56 QX2.3_2 $end
$var wire 1 57 QX2.3_3 $end
$upscope $end
$var wire 1 58 QX2.4 $end
$scope module QX2_4 $end
$var wire 1 59 QX2.4_0 $end
$var wire 1 60 QX2.4_1 $end
$upscope $end
$var wire 1 63 QX2.5 $end
$scope module QX2_5 $end
$var wire 1 62 QX2.5_0 $end
$var wire 1 63 QX2.5_1 $end
$var wire 1 64 QX2.5_2 $end
$upscope $end
$var wire 1 65 QX2.6 $end
$scope module QX2_6 $end
$var wire 1 66 QX2.6_0 $end
$var wire 1 67 QX2.6_1 $end
$var wire 1 68 QX2.6_2 $end
$upscope $end
$var wire 1 69 QX2.7 $end
$scope module QX2_7 $end
$var wire 1 70 QX2.7_0 $end
$var wire 1 71 QX2.7_1 $end
$upscope $end
$var wire 1 73 TX0.4 $end
$var integer 32 74 a $end
$var wire 1 75 b0 $end
$scope module b0 $end
$var wire 1 76 b0_1 $end
$var wire 1 77 b0_2 $end
$var wire 1 78 b0_3 $end
$var wire 1 79 b0_4 $end
$upscope $end
$var event 1 80 c0 $end
$scope module c0 $end
$var wire 1 81 c0_1 $end
$upscope $end
$var event 1 82 c1 $end
$scope module c1 $end
$var wire 1 83 c1_1 $end
$var wire 1 84 c1_2 $end
$var integer 32 85 c1_3 $end
$upscope $end
$var integer 8 3 d0 $end
$var wire 1 87 f0 $end
$var wire 1 88 iClock $end
$var wire 1 89 m0 $end
$scope module m0 $end
$var wire 1 90 m0_1 $end
$var wire 1 91 m0_2 $end
$upscope $end
$var wire 1 92 m1 $end
$scope module m1 $end
$var wire 1 93 m1_1 $end
$var wire 1 94 m1_2 $end
$upscope $end
$var wire 1 95 m2 $end
$scope module m2 $end
$var wire 1 96 m2_1 $end
$var wire 1 97 m2_2 $end
$upscope $end
$var wire 1 98 m3 $end
$scope module m3 $end
$var wire 1 99 m3_1 $end
$var wire 1 100 m3_2 $end
$upscope $end
$var wire 1 101 m4 $end
$scope module m4 $end
$var wire 1 102 m4_1 $end
$var wire 1 103 m4_2 $end
$upscope $end
$var wire 1 104 m5 $end
$scope module m5 $end
$var wire 1 105 m5_1 $end
$var wire 1 106 m5_2 $end
$upscope $end
$var wire 1 107 m6 $end
$scope module m6 $end
$var wire 1 108 m6_1 $end
$var wire 1 109 m6_2 $end
$upscope $end
$var wire 1 110 m7 $end
$scope module m7 $end
$var wire 1 111 m7_1 $end
$var wire 1 112 m7_2 $end
$upscope $end
$var wire 1 113 m8 $end
$scope module m8 $end
$var wire 1 114 m8_1 $end
$var wire 1 115 m8_2 $end
$upscope $end
$var event 1 116 t $end
$scope module t $end
$var wire 1 117 t_1 $end
$upscope $end
$upscope $end
$enddefinitions $end

$dumpvars b0 3 05 06 07 08 09 011 012 013 014 015 016 017 018 b0 19 b1 21 022 023 b0 24 b1 25 026 029 031 033 035 037 039 041 043 046 048 049 050 051 052 053 054 055 056 057 058 059 060 162 063 164 065 066 067 068 069 070 171 073 b0 74 075 076 077 078 079 080 081 082 083 084 b0 85 087 088 089 190 091 092 093 094 095 096 097 098 099 0100 0101 0102 0103 0104 0105 0106 0107 0108 0109 0110 0111 0112 0113 0114 0115 0116 0117 $end
#1
b1 25
#2
188
#3
088
#4
163
062
#5
169
170
#6
071
#7
189
129
#8
193
#9
188
#10
088
#20
173
#21
1117
#22
188
1116
#23
088
#24
188
#25
088
#30
073
#31
0117
#32
188
#33
088
#40
173
#41
1117
#42
188
1116
#43
088
#44
188
#45
088
#50
073
#51
0117
#52
188
#53
088
#60
173
#61
1117
#62
188
1116
#63
088
#64
188
#65
088
#70
073
#71
0117
#72
188
#73
088
#80
173
#81
1117
#82
188
1116
#83
088
#84
188
#85
088
#90
073
#91
0117
#92
188
#93
088
#100
173
#101
1117
#102
188
1116
#103
088
#104
188
#105
088
#110
073
#111
0117
#112
188
#113
088
#120
173
#121
1117
#122
188
1116
#123
088
#124
188
#125
088
#130
073
#131
0117
#132
188
#133
088
#140
173
#141
1117
#142
188
1116
#143
088
#144
188
#145
088
#150
073
#151
0117
#152
188
#153
088
#160
173
#161
1117
#162
188
1116
#163
088
#164
188
#165
088
#170
073
#171
0117
#172
188
#173
088
#180
173
#181
1117
#182
188
1116
#183
088
#184
188
#185
088
#190
073
#191
0117
#192
188
#193
088
#200
173
#201
1117
#202
188
1116
#203
088
#204
188
#205
088
#210
073
#211
0117
#212
188
#213
088
#220
173
#221
1117
#222
188
1116
#223
088
#224
188
#225
088
#230
073
#231
0117
#232
188
#233
088
#240
173
#241
1117
#242
188
1116
#243
088
#244
188
#245
088
#250
073
#251
0117
#252
188
#253
088
#260
173
#261
1117
#262
188
1116
#263
088
#264
188
#265
088
#270
073
#271
0117
#272
188
#273
088
#280
173
#281
1117
#282
188
1116
#283
088
#284
188
#285
088
#290
073
#291
0117
#292
188
#293
088
#300
173
#301
1117
#302
188
1116
#303
088
#304
188
#305
088
#310
073
#311
0117
#312
188
#313
088
#320
173
#321
1117
#322
188
1116
#323
088
#324
188
#325
088
#330
073
#331
0117
#332
188
#333
088
#340
173
#341
1117
#342
188
1116
#343
088
#344
188
#345
088
#350
073
#351
0117
#352
188
#353
088
#360
173
#361
1117
#362
188
1116
#363
088
#364
188
#365
088
#370
073
#371
0117
#372
188
#373
088
#380
173
#381
1117
#382
188
1116
#383
088
#384
188
#385
088
#390
073
#391
0117
#392
188
#393
088
#400
173
#401
1117
#402
188
1116
#403
088
#404
188
#405
088
#410
073
#411
0117
#412
188
#413
088
#420
173
#421
1117
#422
188
1116
#423
088
#424
188
#425
088
#430
073
#431
0117
#432
188
#433
088
#440
173
#441
1117
#442
188
1116
#443
088
#444
188
#445
088
#450
073
#451
0117
#452
188
#453
088
#460
173
#461
1117
#462
188
1116
#463
088
#464
188
#465
088
#470
073
#471
0117
#472
188
#473
088
#480
173
#481
1117
#482
188
1116
#483
088
#484
188
#485
088
#490
073
#491
0117
#492
188
#493
088
#500
173
#501
1117
#502
188
1116
#503
088
#504
188
#505
088
#510
073
#511
0117
#512
188
#513
088
#520
173
#521
1117
#522
188
1116
#523
088
#524
188
#525
088
#530
073
#531
0117
#532
188
#533
088
#540
173
#541
1117
#542
188
1116
#543
088
#544
188
#545
088
#550
073
#551
0117
#552
188
#553
088
#560
173
#561
1117
#562
188
1116
#563
088
#564
188
#565
088
#570
073
#571
0117
#572
188
#573
088
#580
173
#581
1117
#582
188
1116
#583
088
#584
188
#585
088
#590
073
#591
0117
#592
188
#593
088
#600
173
#601
1117
#602
188
1116
#603
088
#604
188
#605
088
#610
073
#611
0117
#612
188
#613
088
#620
173
#621
1117
#622
188
1116
#623
088
#624
188
#625
088
#630
073
#631
0117
#632
188
#633
088
#640
173
#641
1117
#642
188
1116
#643
088
#644
188
#645
088
#650
073
#651
0117
#652
188
#653
088
#660
173
#661
1117
#662
188
1116
#663
088
#664
188
#665
088
#670
073
#671
0117
#672
188
#673
088
#680
173
#681
1117
#682
188
1116
#683
088
#684
188
#685
088
#690
073
#691
0117
#692
188
#693
088
#700
173
#701
1117
#702
188
1116
#703
088
#704
188
#705
088
#710
073
#711
0117
#712
188
#713
088
#720
173
#721
1117
#722
188
1116
#723
088
#724
188
#725
088
#730
073
#731
0117
#732
188
#733
088
#740
173
#741
1117
#742
188
1116
#743
088
#744
188
#745
088
#750
073
#751
0117
#752
188
#753
088
#760
173
#761
1117
#762
188
1116
#763
088
#764
188
#765
088
#770
073
#771
0117
#772
188
#773
088
#780
173
#781
1117
#782
188
1116
#783
088
#784
188
#785
088
#790
073
#791
0117
#792
188
#793
088
#800
173
#801
1117
#802
188
1116
#803
088
#804
188
#805
088
#810
073
#811
0117
#812
188
#813
088
#820
173
#821
1117
#822
188
1116
#823
088
#824
188
#825
088
#830
073
#831
0117
#832
188
#833
088
#840
173
#841
1117
#842
188
1116
#843
088
#844
188
#845
088
#850
073
#851
0117
#852
188
#853
088
#860
173
#861
1117
#862
188
1116
#863
088
#864
188
#865
088
#870
073
#871
0117
#872
188
#873
088
#880
173
#881
1117
#882
188
1116
#883
088
#884
188
#885
088
#890
073
#891
0117
#892
188
#893
088
#900
173
#901
1117
#902
188
1116
#903
088
#904
188
#905
088
#910
073
#911
0117
#912
188
#913
088
#920
173
#921
1117
#922
188
1116
#923
088
#924
188
#925
088
#930
073
#931
0117
#932
188
#933
088
#940
173
#941
1117
#942
188
1116
#943
088
#944
188
#945
088
#950
073
#951
0117
#952
188
#953
088
#960
173
#961
1117
#962
188
1116
#963
088
#964
188
#965
088
#970
073
#971
0117
#972
188
#973
088
#980
173
#981
1117
#982
188
1116
#983
088
#984
188
#985
088
#990
073
#991
0117
#992
188
#993
088
#1000
173
#1001
1117
#1002
188
1116
#1003
088
#1004
188
#1005
088
#1010
073
#1011
0117
#1012
188
#1013
088
#1020
173
#1021
1117
#1022
188
1116
#1023
088
#1024
188
#1025
088
#1030
073
#1031
0117
#1032
188
#1033
088
#1040
b1 3
#1041
187
148
#1042
179
#1043
188
#1044
088
#1050
173
#1051
1117
#1052
188
1116
#1053
088
#1054
176
#1055
175
#1056
181
#1057
079
#1058
188
180
#1059
088
#1060
076
#1061
192
131
#1062
196
#1063
075
#1064
081
#1065
179
#1066
188
#1067
088
#1070
073
#1071
0117
#1072
188
#1073
088
#1080
173
#1081
1117
#1082
188
1116
#1083
088
#1084
176
#1085
175
#1086
181
#1087
079
#1088
188
180
#1089
088
#1090
076
#1091
195
133
#1092
199
#1093
075
#1094
081
#1095
179
#1096
188
#1097
088
#1100
073
#1101
0117
#1102
188
#1103
088
#1110
173
#1111
1117
#1112
188
1116
#1113
088
#1114
176
#1115
175
#1116
181
#1117
079
#1118
188
180
#1119
088
#1120
076
#1121
198
135
#1122
1102
#1123
075
#1124
081
#1125
179
#1126
188
#1127
088
#1130
073
#1131
0117
#1132
188
#1133
088
#1140
173
#1141
1117
#1142
188
1116
#1143
088
#1144
176
#1145
175
#1146
181
#1147
079
#1148
188
180
#1149
088
#1150
076
#1151
1101
137
#1152
1105
#1153
075
#1154
081
#1155
179
#1156
188
#1157
088
#1160
073
#1161
0117
#1162
188
#1163
088
#1170
173
#1171
1117
#1172
188
1116
#1173
088
#1174
176
#1175
175
#1176
181
#1177
079
#1178
188
180
#1179
088
#1180
076
#1181
1104
139
#1182
1108
#1183
075
#1184
081
#1185
179
#1186
188
#1187
088
#1190
073
#1191
0117
#1192
188
#1193
088
#1200
173
#1201
1117
#1202
188
1116
#1203
088
#1204
176
#1205
175
#1206
181
#1207
079
#1208
188
180
#1209
088
#1210
076
#1211
1107
141
#1212
1111
#1213
075
#1214
081
#1215
179
#1216
188
#1217
088
#1220
073
#1221
0117
#1222
188
#1223
088
#1230
173
#1231
1117
#1232
188
1116
#1233
088
#1234
176
#1235
175
#1236
181
#1237
079
#1238
188
180
#1239
088
#1240
076
#1241
1110
143
#1242
1114
#1243
075
#1244
081
#1245
179
#1246
188
#1247
088
#1250
073
#1251
0117
#1252
188
#1253
088
#1260
173
#1261
1117
#1262
188
1116
#1263
088
#1264
176
#1265
175
#1266
181
#1267
079
#1268
188
180
#1269
088
#1270
076
#1271
1113
146
#1272
1112
#1273
090
#1274
093
#1275
096
#1276
099
#1277
0102
#1278
0105
#1279
0108
#1280
0111
#1281
0114
#1282
075
#1283
081
#1284
179
#1285
188
#1286
088
#1290
073
#1291
0117
#1292
188
#1293
088
#1300
173
#1301
1117
#1302
188
1116
#1303
088
#1304
176
#1305
175
#1306
181
#1307
079
#1308
188
180
#1309
088
#1310
076
#1311
0110
043
#1312
1109
#1313
075
#1314
081
#1315
179
#1316
188
#1317
088
#1320
073
#1321
0117
#1322
188
#1323
088
#1330
173
#1331
1117
#1332
188
1116
#1333
088
#1334
176
#1335
175
#1336
181
#1337
079
#1338
188
180
#1339
088
#1340
076
#1341
0107
041
#1342
1106
#1343
075
#1344
081
#1345
179
#1346
188
#1347
088
#1350
073
#1351
0117
#1352
188
#1353
088
#1360
173
#1361
1117
#1362
188
1116
#1363
088
#1364
176
#1365
175
#1366
181
#1367
079
#1368
188
180
#1369
088
#1370
076
#1371
0104
039
#1372
1103
#1373
075
#1374
081
#1375
179
#1376
188
#1377
088
#1380
073
#1381
0117
#1382
188
#1383
088
#1390
173
#1391
1117
#1392
188
1116
#1393
088
#1394
176
#1395
175
#1396
181
#1397
079
#1398
188
180
#1399
088
#1400
076
#1401
0101
037
#1402
1100
#1403
075
#1404
081
#1405
179
#1406
188
#1407
088
#1410
073
#1411
0117
#1412
188
#1413
088
#1420
173
#1421
1117
#1422
188
1116
#1423
088
#1424
176
#1425
175
#1426
181
#1427
079
#1428
188
180
#1429
088
#1430
076
#1431
098
035
#1432
197
#1433
075
#1434
081
#1435
179
#1436
188
#1437
088
#1440
073
#1441
0117
#1442
188
#1443
088
#1450
173
#1451
1117
#1452
188
1116
#1453
088
#1454
176
#1455
175
#1456
181
#1457
079
#1458
188
180
#1459
088
#1460
076
#1461
095
033
#1462
194
#1463
075
#1464
081
#1465
179
#1466
188
#1467
088
#1470
073
#1471
0117
#1472
188
#1473
088
#1480
173
#1481
1117
#1482
188
1116
#1483
088
#1484
176
#1485
175
#1486
181
#1487
079
#1488
188
180
#1489
088
#1490
076
#1491
092
031
#1492
191
#1493
075
#1494
081
#1495
179
#1496
188
#1497
088
#1500
073
#1501
0117
#1502
188
#1503
088
#1510
173
#1511
1117
#1512
188
1116
#1513
088
#1514
176
#1515
175
#1516
181
#1517
079
#1518
188
180
#1519
088
#1520
076
#1521
089
029
#1522
1115
#1523
075
#1524
081
#1525
179
#1526
188
#1527
088
#1530
073
#1531
0117
#1532
188
#1533
088
#1540
173
#1541
1117
#1542
188
1116
#1543
088
#1544
176
#1545
175
#1546
181
#1547
079
#1548
188
180
#1549
088
#1550
076
#1551
0113
046
#1552
091
#1553
094
#1554
097
#1555
0100
#1556
0103
#1557
0106
#1558
0109
#1559
0112
#1560
0115
#1561
190
#1562
075
#1563
081
#1564
179
#1565
188
#1566
088
#1570
073
#1571
0117
#1572
188
#1573
088
#1580
173
#1581
1117
#1582
188
1116
#1583
088
#1584
176
#1585
175
#1586
181
#1587
079
#1588
188
180
#1589
088
#1590
076
#1591
189
129
#1592
193
#1593
075
#1594
081
#1595
179
#1596
188
#1597
088
#1600
073
#1601
0117
#1602
188
#1603
088
#1610
173
#1611
1117
#1612
188
1116
#1613
088
#1614
176
#1615
175
#1616
181
#1617
079
#1618
188
180
#1619
088
#1620
076
#1621
192
131
#1622
196
#1623
075
#1624
081
#1625
179
#1626
188
#1627
088
#1630
073
#1631
0117
#1632
188
#1633
088
#1640
173
#1641
1117
#1642
188
1116
#1643
088
#1644
176
#1645
175
#1646
181
#1647
079
#1648
188
180
#1649
088
#1650
076
#1651
195
133
#1652
199
#1653
075
#1654
081
#1655
179
#1656
188
#1657
088
#1660
073
#1661
0117
#1662
188
#1663
088
#1670
173
#1671
1117
#1672
188
1116
#1673
088
#1674
176
#1675
175
#1676
181
#1677
079
#1678
188
180
#1679
088
#1680
076
#1681
198
135
#1682
1102
#1683
075
#1684
081
#1685
179
#1686
188
#1687
088
#1690
073
#1691
0117
#1692
188
#1693
088
#1700
173
#1701
1117
#1702
188
1116
#1703
088
#1704
176
#1705
175
#1706
181
#1707
079
#1708
188
180
#1709
088
#1710
076
#1711
1101
137
#1712
1105
#1713
075
#1714
081
#1715
179
#1716
188
#1717
088
#1720
073
#1721
0117
#1722
188
#1723
088
#1730
173
#1731
1117
#1732
188
1116
#1733
088
#1734
176
#1735
175
#1736
181
#1737
079
#1738
188
180
#1739
088
#1740
076
#1741
1104
139
#1742
1108
#1743
075
#1744
081
#1745
179
#1746
188
#1747
088
#1750
073
#1751
0117
#1752
188
#1753
088
#1760
173
#1761
1117
#1762
188
1116
#1763
088
#1764
176
#1765
175
#1766
181
#1767
079
#1768
188
180
#1769
088
#1770
076
#1771
1107
141
#1772
1111
#1773
075
#1774
081
#1775
179
#1776
188
#1777
088
#1780
073
#1781
0117
#1782
188
#1783
088
#1790
173
#1791
1117
#1792
188
1116
#1793
088
#1794
176
#1795
175
#1796
181
#1797
079
#1798
188
180
#1799
088
#1800
076
#1801
1110
143
#1802
1114
#1803
075
#1804
081
#1805
179
#1806
188
#1807
088
#1810
073
#1811
0117
#1812
188
#1813
088
#1820
173
#1821
1117
#1822
188
1116
#1823
088
#1824
176
#1825
175
#1826
181
#1827
079
#1828
188
180
#1829
088
#1830
076
#1831
1113
146
#1832
1112
#1833
090
#1834
093
#1835
096
#1836
099
#1837
0102
#1838
0105
#1839
0108
#1840
0111
#1841
0114
#1842
075
#1843
081
#1844
179
#1845
188
#1846
088
#1850
073
#1851
0117
#1852
188
#1853
088
#1860
173
#1861
1117
#1862
188
1116
#1863
088
#1864
176
#1865
175
#1866
181
#1867
079
#1868
188
180
#1869
088
#1870
076
#1871
0110
043
#1872
1109
#1873
075
#1874
081
#1875
179
#1876
188
#1877
088
#1880
073
#1881
0117
#1882
188
#1883
088
#1890
173
#1891
1117
#1892
188
1116
#1893
088
#1894
176
#1895
175
#1896
181
#1897
079
#1898
188
180
#1899
088
#1900
076
#1901
0107
041
#1902
1106
#1903
075
#1904
081
#1905
179
#1906
188
#1907
088
#1910
073
#1911
0117
#1912
188
#1913
088
#1920
173
#1921
1117
#1922
188
1116
#1923
088
#1924
176
#1925
175
#1926
181
#1927
079
#1928
188
180
#1929
088
#1930
076
#1931
0104
039
#1932
1103
#1933
075
#1934
081
#1935
179
#1936
188
#1937
088
#1940
073
#1941
0117
#1942
188
#1943
088
#1950
173
#1951
1117
#1952
188
1116
#1953
088
#1954
176
#1955
175
#1956
181
#1957
079
#1958
188
180
#1959
088
#1960
076
#1961
0101
037
#1962
1100
#1963
075
#1964
081
#1965
179
#1966
188
#1967
088
#1970
073
#1971
0117
#1972
188
#1973
088
#1980
173
#1981
1117
#1982
188
1116
#1983
088
#1984
176
#1985
175
#1986
181
#1987
079
#1988
188
180
#1989
088
#1990
076
#1991
098
035
#1992
197
#1993
075
#1994
081
#1995
179
#1996
188
#1997
088
#2000
073
#2001
0117
#2002
188
#2003
088
#2010
173
#2011
1117
#2012
188
1116
#2013
088
#2014
176
#2015
175
#2016
181
#2017
079
#2018
188
180
#2019
088
#2020
076
#2021
095
033
#2022
194
#2023
075
#2024
081
#2025
179
#2026
188
#2027
088
#2030
073
#2031
0117
#2032
188
#2033
088
#2040
173
#2041
1117
#2042
188
1116
#2043
088
#2044
176
#2045
175
#2046
181
#2047
079
#2048
188
180
#2049
088
#2050
076
#2051
092
031
#2052
191
#2053
075
#2054
081
#2055
179
#2056
188
#2057
088
#2060
073
#2061
0117
#2062
188
#2063
088
#2070
173
#2071
1117
#2072
188
1116
#2073
088
#2074
176
#2075
175
#2076
181
#2077
079
#2078
188
180
#2079
088
#2080
076
#2081
089
029
#2082
1115
#2083
075
#2084
081
#2085
179
#2086
188
#2087
088
#2090
073
#2091
0117
#2092
188
#2093
088
#2100
173
#2101
1117
#2102
188
1116
#2103
088
#2104
176
#2105
175
#2106
181
#2107
079
#2108
188
180
#2109
088
#2110
076
#2111
0113
046
#2112
091
#2113
094
#2114
097
#2115
0100
#2116
0103
#2117
0106
#2118
0109
#2119
0112
#2120
0115
#2121
190
#2122
075
#2123
081
#2124
179
#2125
188
#2126
088
#2130
073
#2131
0117
#2132
188
#2133
088
#2140
173
#2141
1117
#2142
188
1116
#2143
088
#2144
176
#2145
175
#2146
181
#2147
079
#2148
188
180
#2149
088
#2150
076
#2151
189
129
#2152
193
#2153
075
#2154
081
#2155
179
#2156
188
#2157
088
#2160
073
#2161
0117
#2162
188
#2163
088
#2170
173
#2171
1117
#2172
188
1116
#2173
088
#2174
176
#2175
175
#2176
181
#2177
079
#2178
188
180
#2179
088
#2180
076
#2181
192
131
#2182
196
#2183
075
#2184
081
#2185
179
#2186
188
#2187
088
#2190
073
#2191
0117
#2192
188
#2193
088
#2200
173
#2201
1117
#2202
188
1116
#2203
088
#2204
176
#2205
175
#2206
181
#2207
079
#2208
188
180
#2209
088
#2210
076
#2211
195
133
#2212
199
#2213
075
#2214
081
#2215
179
#2216
188
#2217
088
#2220
073
#2221
0117
#2222
188
#2223
088
#2230
173
#2231
1117
#2232
188
1116
#2233
088
#2234
176
#2235
175
#2236
181
#2237
079
#2238
188
180
#2239
088
#2240
076
#2241
198
135
#2242
1102
#2243
075
#2244
081
#2245
179
#2246
188
#2247
088
#2250
073
#2251
0117
#2252
188
#2253
088
#2260
173
#2261
1117
#2262
188
1116
#2263
088
#2264
176
#2265
175
#2266
181
#2267
079
#2268
188
180
#2269
088
#2270
076
#2271
1101
137
#2272
1105
#2273
075
#2274
081
#2275
179
#2276
188
#2277
088
#2280
073
#2281
0117
#2282
188
#2283
088
#2290
173
#2291
1117
#2292
188
1116
#2293
088
#2294
176
#2295
175
#2296
181
#2297
079
#2298
188
180
#2299
088
#2300
076
#2301
1104
139
#2302
1108
#2303
075
#2304
081
#2305
179
#2306
188
#2307
088
#2310
073
#2311
0117
#2312
188
#2313
088
#2320
173
#2321
1117
#2322
188
1116
#2323
088
#2324
176
#2325
175
#2326
181
#2327
079
#2328
188
180
#2329
088
#2330
076
#2331
1107
141
#2332
1111
#2333
075
#2334
081
#2335
179
#2336
188
#2337
088
#2340
073
#2341
0117
#2342
188
#2343
088
#2350
173
#2351
1117
#2352
188
1116
#2353
088
#2354
176
#2355
175
#2356
181
#2357
079
#2358
188
180
#2359
088
#2360
076
#2361
1110
143
#2362
1114
#2363
075
#2364
081
#2365
179
#2366
188
#2367
088
#2370
073
#2371
0117
#2372
188
#2373
088
#2380
173
#2381
1117
#2382
188
1116
#2383
088
#2384
176
#2385
175
#2386
181
#2387
079
#2388
188
180
#2389
088
#2390
076
#2391
1113
146
#2392
1112
#2393
090
#2394
093
#2395
096
#2396
099
#2397
0102
#2398
0105
#2399
0108
#2400
0111
#2401
0114
#2402
075
#2403
081
#2404
179
#2405
188
#2406
088
#2410
073
#2411
0117
#2412
188
#2413
088
#2420
173
#2421
1117
#2422
188
1116
#2423
088
#2424
176
#2425
175
#2426
181
#2427
079
#2428
188
180
#2429
088
#2430
076
#2431
0110
043
#2432
1109
#2433
075
#2434
081
#2435
179
#2436
188
#2437
088
#2440
073
#2441
0117
#2442
188
#2443
088
#2450
173
#2451
1117
#2452
188
1116
#2453
088
#2454
176
#2455
175
#2456
181
#2457
079
#2458
188
180
#2459
088
#2460
076
#2461
0107
041
#2462
1106
#2463
075
#2464
081
#2465
179
#2466
188
#2467
088
#2470
073
#2471
0117
#2472
188
#2473
088
#2480
173
#2481
1117
#2482
188
1116
#2483
088
#2484
176
#2485
175
#2486
181
#2487
079
#2488
188
180
#2489
088
#2490
076
#2491
0104
039
#2492
1103
#2493
075
#2494
081
#2495
179
#2496
188
#2497
088
#2500
073
#2501
0117
#2502
188
#2503
088
#2510
173
#2511
1117
#2512
188
1116
#2513
088
#2514
176
#2515
175
#2516
181
#2517
079
#2518
188
180
#2519
088
#2520
076
#2521
0101
037
#2522
1100
#2523
075
#2524
081
#2525
179
#2526
188
#2527
088
#2530
073
#2531
0117
#2532
188
#2533
088
#2540
173
#2541
1117
#2542
188
1116
#2543
088
#2544
176
#2545
175
#2546
181
#2547
079
#2548
188
180
#2549
088
#2550
076
#2551
098
035
#2552
197
#2553
075
#2554
081
#2555
179
#2556
188
#2557
088
#2560
073
#2561
0117
#2562
188
#2563
088
#2570
173
#2571
1117
#2572
188
1116
#2573
088
#2574
176
#2575
175
#2576
181
#2577
079
#2578
188
180
#2579
088
#2580
076
#2581
095
033
#2582
194
#2583
075
#2584
081
#2585
179
#2586
188
#2587
088
#2590
073
#2591
0117
#2592
188
#2593
088
#2600
173
#2601
1117
#2602
188
1116
#2603
088
#2604
176
#2605
175
#2606
181
#2607
079
#2608
188
180
#2609
088
#2610
076
#2611
092
031
#2612
191
#2613
075
#2614
081
#2615
179
#2616
188
#2617
088
#2620
073
#2621
0117
#2622
188
#2623
088
#2630
173
#2631
1117
#2632
188
1116
#2633
088
#2634
176
#2635
175
#2636
181
#2637
079
#2638
188
180
#2639
088
#2640
076
#2641
089
029
#2642
1115
#2643
075
#2644
081
#2645
179
#2646
188
#2647
088
#2650
073
#2651
0117
#2652
188
#2653
088
#2660
173
#2661
1117
#2662
188
1116
#2663
088
#2664
176
#2665
175
#2666
181
#2667
079
#2668
188
180
#2669
088
#2670
076
#2671
0113
046
#2672
091
#2673
094
#2674
097
#2675
0100
#2676
0103
#2677
0106
#2678
0109
#2679
0112
#2680
0115
#2681
190
#2682
075
#2683
081
#2684
179
#2685
188
#2686
088
#2690
073
#2691
0117
#2692
188
#2693
088
#2700
173
#2701
1117
#2702
188
1116
#2703
088
#2704
176
#2705
175
#2706
181
#2707
079
#2708
188
180
#2709
088
#2710
076
#2711
189
129
#2712
193
#2713
075
#2714
081
#2715
179
#2716
188
#2717
088
#2720
073
#2721
0117
#2722
188
#2723
088
#2730
173
#2731
1117
#2732
188
1116
#2733
088
#2734
176
#2735
175
#2736
181
#2737
079
#2738
188
180
#2739
088
#2740
076
#2741
192
131
#2742
196
#2743
075
#2744
081
#2745
179
#2746
188
#2747
088
#2750
073
#2751
0117
#2752
188
#2753
088
#2760
b11 3
#2761
188
#2762
088
#2770
b101 3
#2771
b1 74
#2772
b1 85
#2773
184
#2774
183
#2775
188
182
#2776
088
#2777
b1 19
#2778
b10 25
#2779
b10 21
#2780
084
#2781
083
#2782
069
070
#2783
171
#2784
188
#2785
088
#2790
b110 3
#2791
188
#2792
088
#2800
173
#2801
1117
#2802
188
1116
#2803
088
#2804
176
#2805
175
#2806
181
#2807
079
#2808
188
180
#2809
088
#2810
076
#2811
195
133
#2812
199
#2813
075
#2814
081
#2815
179
#2816
188
#2817
088
#2820
b1000 3
#2821
188
#2822
088
#2830
b1010 3
#2831
b10 74
#2832
b10 85
#2833
184
#2834
183
#2835
188
182
#2836
088
#2837
b10 19
#2838
b11 25
#2839
b11 21
#2840
084
#2841
083
#2842
169
170
#2843
071
#2844
188
#2845
088
#2850
073
#2851
0117
#2852
188
#2853
088
#2860
b1100 3
#2861
188
#2862
088
#2870
b1101 3
#2871
188
#2872
088
#2880
b1111 3
#2881
b11 74
#2882
b11 85
#2883
184
#2884
183
#2885
188
182
#2886
088
#2887
b11 19
#2888
b100 25
#2889
b100 21
#2890
084
#2891
083
#2892
069
070
#2893
171
#2894
188
#2895
088
#2900
173
#2901
1117
#2902
188
1116
#2903
088
#2904
188
#2905
088
#2910
b10000 3
#2911
188
#2912
088
#2920
b10001 3
#2921
188
#2922
088
#2930
073
#2931
0117
#2932
188
#2933
088
#2940
b10010 3
#2941
188
#2942
088
#2950
b10011 3
#2951
188
#2952
088
#2960
173
#2961
1117
#2962
188
1116
#2963
088
#2964
188
#2965
088
#2970
b10100 3
#2971
b100 74
#2972
b100 85
#2973
157
#2974
184
#2975
183
#2976
153
154
#2977
188
182
#2978
088
#2979
b100 19
#2980
b101 25
#2981
b101 21
#2982
084
#2983
083
#2984
169
170
#2985
071
#2986
188
#2987
088
#2990
073
#2991
0117
#2992
188
#2993
088
#3000
173
#3001
1117
#3002
188
1116
#3003
088
#3004
188
#3005
088
#3010
b10110 3
#3011
188
#3012
088
#3020
b11001 3
#3021
b101 74
#3022
b101 85
#3023
184
