src/barx.vcd
$date
    Fri Feb  1 23:40:43 2013
$end
$version
    immediate C @(#)     $Id: barx.vcd,v 1.1 2013/02/01 23:41:01 jw Exp $
$end
$timescale
     1 us
$end

$scope module bar $end
$var integer 8 3 IB1 $end
$var wire 1 5 IX0.0 $end
$var wire 1 6 IX0.1 $end
$var wire 1 7 IX0.2 $end
$var wire 1 8 IX0.3 $end
$var wire 1 9 IX0.4 $end
$var wire 1 11 IX2.0 $end
$var wire 1 12 IX2.1 $end
$var wire 1 13 IX2.2 $end
$var wire 1 14 IX2.3 $end
$var wire 1 15 IX2.4 $end
$var wire 1 16 IX2.5 $end
$var wire 1 17 IX2.6 $end
$var wire 1 18 IX2.7 $end
$var integer 8 19 QB1 $end
$scope module QB1 $end
$var integer 32 21 QB1_1 $end
$var wire 1 22 QB1_2 $end
$var wire 1 23 QB1_3 $end
$var integer 32 24 QB1_4 $end
$var integer 32 25 QB1_5 $end
$var wire 1 26 QB1_6 $end
$upscope $end
$var wire 1 89 QX0.0 $end
$scope module QX0_0 $end
$var wire 1 29 QX0.0_0 $end
$upscope $end
$var wire 1 92 QX0.1 $end
$scope module QX0_1 $end
$var wire 1 31 QX0.1_0 $end
$upscope $end
$var wire 1 95 QX0.2 $end
$scope module QX0_2 $end
$var wire 1 33 QX0.2_0 $end
$upscope $end
$var wire 1 98 QX0.3 $end
$scope module QX0_3 $end
$var wire 1 35 QX0.3_0 $end
$upscope $end
$var wire 1 101 QX0.4 $end
$scope module QX0_4 $end
$var wire 1 37 QX0.4_0 $end
$upscope $end
$var wire 1 104 QX0.5 $end
$scope module QX0_5 $end
$var wire 1 39 QX0.5_0 $end
$upscope $end
$var wire 1 107 QX0.6 $end
$scope module QX0_6 $end
$var wire 1 41 QX0.6_0 $end
$upscope $end
$var wire 1 110 QX0.7 $end
$scope module QX0_7 $end
$var wire 1 43 QX0.7_0 $end
$upscope $end
$var wire 1 113 QX2.0 $end
$scope module QX2_0 $end
$var wire 1 46 QX2.0_0 $end
$upscope $end
$var wire 1 87 QX2.1 $end
$scope module QX2_1 $end
$var wire 1 48 QX2.1_0 $end
$upscope $end
$var wire 1 49 QX2.2 $end
$scope module QX2_2 $end
$var wire 1 50 QX2.2_0 $end
$var wire 1 51 QX2.2_1 $end
$var wire 1 52 QX2.2_2 $end
$upscope $end
$var wire 1 53 QX2.3 $end
$scope module QX2_3 $end
$var wire 1 54 QX2.3_0 $end
$var wire 1 55 QX2.3_1 $end
$var wire 1 56 QX2.3_2 $end
$var wire 1 57 QX2.3_3 $end
$upscope $end
$var wire 1 58 QX2.4 $end
$scope module QX2_4 $end
$var wire 1 59 QX2.4_0 $end
$var wire 1 60 QX2.4_1 $end
$upscope $end
$var wire 1 63 QX2.5 $end
$scope module QX2_5 $end
$var wire 1 62 QX2.5_0 $end
$var wire 1 63 QX2.5_1 $end
$var wire 1 64 QX2.5_2 $end
$upscope $end
$var wire 1 65 QX2.6 $end
$scope module QX2_6 $end
$var wire 1 66 QX2.6_0 $end
$var wire 1 67 QX2.6_1 $end
$var wire 1 68 QX2.6_2 $end
$upscope $end
$var wire 1 69 QX2.7 $end
$scope module QX2_7 $end
$var wire 1 70 QX2.7_0 $end
$var wire 1 71 QX2.7_1 $end
$upscope $end
$var wire 1 73 TX0.4 $end
$var integer 32 74 a $end
$var wire 1 75 b0 $end
$scope module b0 $end
$var wire 1 76 b0_1 $end
$var wire 1 77 b0_2 $end
$var wire 1 78 b0_3 $end
$var wire 1 79 b0_4 $end
$upscope $end
$var event 1 80 c0 $end
$scope module c0 $end
$var wire 1 81 c0_1 $end
$upscope $end
$var event 1 82 c1 $end
$scope module c1 $end
$var wire 1 83 c1_1 $end
$var wire 1 84 c1_2 $end
$var integer 32 85 c1_3 $end
$upscope $end
$var integer 8 3 d0 $end
$var wire 1 87 f0 $end
$var wire 1 88 iClock $end
$var wire 1 89 m0 $end
$scope module m0 $end
$var wire 1 90 m0_1 $end
$var wire 1 91 m0_2 $end
$upscope $end
$var wire 1 92 m1 $end
$scope module m1 $end
$var wire 1 93 m1_1 $end
$var wire 1 94 m1_2 $end
$upscope $end
$var wire 1 95 m2 $end
$scope module m2 $end
$var wire 1 96 m2_1 $end
$var wire 1 97 m2_2 $end
$upscope $end
$var wire 1 98 m3 $end
$scope module m3 $end
$var wire 1 99 m3_1 $end
$var wire 1 100 m3_2 $end
$upscope $end
$var wire 1 101 m4 $end
$scope module m4 $end
$var wire 1 102 m4_1 $end
$var wire 1 103 m4_2 $end
$upscope $end
$var wire 1 104 m5 $end
$scope module m5 $end
$var wire 1 105 m5_1 $end
$var wire 1 106 m5_2 $end
$upscope $end
$var wire 1 107 m6 $end
$scope module m6 $end
$var wire 1 108 m6_1 $end
$var wire 1 109 m6_2 $end
$upscope $end
$var wire 1 110 m7 $end
$scope module m7 $end
$var wire 1 111 m7_1 $end
$var wire 1 112 m7_2 $end
$upscope $end
$var wire 1 113 m8 $end
$scope module m8 $end
$var wire 1 114 m8_1 $end
$var wire 1 115 m8_2 $end
$upscope $end
$var event 1 116 t $end
$scope module t $end
$var wire 1 117 t_1 $end
$upscope $end
$upscope $end
$enddefinitions $end

$dumpvars b0 3 05 06 07 08 09 011 012 013 014 015 016 017 018 b0 19 b1 21 022 023 b0 24 b1 25 026 029 031 033 035 037 039 041 043 046 048 049 050 051 052 053 054 055 056 057 058 059 060 162 063 164 065 066 067 068 069 070 171 073 b0 74 075 076 077 078 079 080 081 082 083 084 b0 85 087 088 089 190 091 092 093 094 095 096 097 098 099 0100 0101 0102 0103 0104 0105 0106 0107 0108 0109 0110 0111 0112 0113 0114 0115 0116 0117 $end
#1
b1 25
#2
188
#3
088
#4
163
062
#5
169
170
#6
071
#7
189
129
#8
193
#9
188
#10
088
#20
173
#21
1117
#22
188
1116
#23
088
#24
188
#25
088
#30
073
#31
0117
#32
188
#33
088
#40
173
#41
1117
#42
188
1116
#43
088
#44
188
#45
088
#50
073
#51
0117
#52
188
#53
088
#60
173
#61
1117
#62
188
1116
#63
088
#64
188
#65
088
#70
073
#71
0117
#72
188
#73
088
#80
173
#81
1117
#82
188
1116
#83
088
#84
188
#85
088
#90
073
#91
0117
#92
188
#93
088
#100
173
#101
1117
#102
188
1116
#103
088
#104
188
#105
088
#110
073
#111
0117
#112
188
#113
088
#120
173
#121
1117
#122
188
1116
#123
088
#124
188
#125
088
#130
073
#131
0117
#132
188
#133
088
#140
173
#141
1117
#142
188
1116
#143
088
#144
188
#145
088
#150
073
#151
0117
#152
188
#153
088
#160
173
#161
1117
#162
188
1116
#163
088
#164
188
#165
088
#170
073
#171
0117
#172
188
#173
088
#180
173
#181
1117
#182
188
1116
#183
088
#184
188
#185
088
#190
073
#191
0117
#192
188
#193
088
#200
173
#201
1117
#202
188
1116
#203
088
#204
188
#205
088
#210
073
#211
0117
#212
188
#213
088
#220
173
#221
1117
#222
188
1116
#223
088
#224
188
#225
088
#230
073
#231
0117
#232
188
#233
088
#240
173
#241
1117
#242
188
1116
#243
088
#244
188
#245
088
#250
073
#251
0117
#252
188
#253
088
#260
173
#261
1117
#262
188
1116
#263
088
#264
188
#265
088
#270
073
#271
0117
#272
188
#273
088
#280
173
#281
1117
#282
188
1116
#283
088
#284
188
#285
088
#290
073
#291
0117
#292
188
#293
088
#300
173
#301
1117
#302
188
1116
#303
088
#304
188
#305
088
#310
073
#311
0117
#312
188
#313
088
#320
173
#321
1117
#322
188
1116
#323
088
#324
188
#325
088
#330
073
#331
0117
#332
188
#333
088
#340
173
#341
1117
#342
188
1116
#343
088
#344
188
#345
088
#350
073
#351
0117
#352
188
#353
088
#360
173
#361
1117
#362
188
1116
#363
088
#364
188
#365
088
#370
073
#371
0117
#372
188
#373
088
#380
173
#381
1117
#382
188
1116
#383
088
#384
188
#385
088
#390
073
#391
0117
#392
188
#393
088
#400
173
#401
1117
#402
188
1116
#403
088
#404
188
#405
088
#410
073
#411
0117
#412
188
#413
088
#420
173
#421
1117
#422
188
1116
#423
088
#424
188
#425
088
#430
073
#431
0117
#432
188
#433
088
#440
173
#441
1117
#442
188
1116
#443
088
#444
188
#445
088
#450
073
#451
0117
#452
188
#453
088
#460
173
#461
1117
#462
188
1116
#463
088
#464
188
#465
088
#470
073
#471
0117
#472
188
#473
088
#480
173
#481
1117
#482
188
1116
#483
088
#484
188
#485
088
#490
073
#491
0117
#492
188
#493
088
#500
173
#501
1117
#502
188
1116
#503
088
#504
188
#505
088
#510
073
#511
0117
#512
188
#513
088
#520
173
#521
1117
#522
188
1116
#523
088
#524
188
#525
088
#530
073
#531
0117
#532
188
#533
088
#540
b1 3
#541
187
148
#542
179
#543
188
#544
088
#550
173
#551
1117
#552
188
1116
#553
088
#554
176
#555
175
#556
181
#557
079
#558
188
180
#559
088
#560
076
#561
192
131
#562
196
#563
075
#564
081
#565
179
#566
188
#567
088
#570
073
#571
0117
#572
188
#573
088
#580
173
#581
1117
#582
188
1116
#583
088
#584
176
#585
175
#586
181
#587
079
#588
188
180
#589
088
#590
076
#591
195
133
#592
199
#593
075
#594
081
#595
179
#596
188
#597
088
#600
073
#601
0117
#602
188
#603
088
#610
173
#611
1117
#612
188
1116
#613
088
#614
176
#615
175
#616
181
#617
079
#618
188
180
#619
088
#620
076
#621
198
135
#622
1102
#623
075
#624
081
#625
179
#626
188
#627
088
#630
073
#631
0117
#632
188
#633
088
#640
173
#641
1117
#642
188
1116
#643
088
#644
176
#645
175
#646
181
#647
079
#648
188
180
#649
088
#650
076
#651
1101
137
#652
1105
#653
075
#654
081
#655
179
#656
188
#657
088
#660
073
#661
0117
#662
188
#663
088
#670
173
#671
1117
#672
188
1116
#673
088
#674
176
#675
175
#676
181
#677
079
#678
188
180
#679
088
#680
076
#681
1104
139
#682
1108
#683
075
#684
081
#685
179
#686
188
#687
088
#690
073
#691
0117
#692
188
#693
088
#700
173
#701
1117
#702
188
1116
#703
088
#704
176
#705
175
#706
181
#707
079
#708
188
180
#709
088
#710
076
#711
1107
141
#712
1111
#713
075
#714
081
#715
179
#716
188
#717
088
#720
073
#721
0117
#722
188
#723
088
#730
173
#731
1117
#732
188
1116
#733
088
#734
176
#735
175
#736
181
#737
079
#738
188
180
#739
088
#740
076
#741
1110
143
#742
1114
#743
075
#744
081
#745
179
#746
188
#747
088
#750
073
#751
0117
#752
188
#753
088
#760
173
#761
1117
#762
188
1116
#763
088
#764
176
#765
175
#766
181
#767
079
#768
188
180
#769
088
#770
076
#771
1113
146
#772
1112
#773
090
#774
093
#775
096
#776
099
#777
0102
#778
0105
#779
0108
#780
0111
#781
0114
#782
075
#783
081
#784
179
#785
188
#786
088
#790
073
#791
0117
#792
188
#793
088
#800
173
#801
1117
#802
188
1116
#803
088
#804
176
#805
175
#806
181
#807
079
#808
188
180
#809
088
#810
076
#811
0110
043
#812
1109
#813
075
#814
081
#815
179
#816
188
#817
088
#820
073
#821
0117
#822
188
#823
088
#830
173
#831
1117
#832
188
1116
#833
088
#834
176
#835
175
#836
181
#837
079
#838
188
180
#839
088
#840
076
#841
0107
041
#842
1106
#843
075
#844
081
#845
179
#846
188
#847
088
#850
073
#851
0117
#852
188
#853
088
#860
173
#861
1117
#862
188
1116
#863
088
#864
176
#865
175
#866
181
#867
079
#868
188
180
#869
088
#870
076
#871
0104
039
#872
1103
#873
075
#874
081
#875
179
#876
188
#877
088
#880
073
#881
0117
#882
188
#883
088
#890
173
#891
1117
#892
188
1116
#893
088
#894
176
#895
175
#896
181
#897
079
#898
188
180
#899
088
#900
076
#901
0101
037
#902
1100
#903
075
#904
081
#905
179
#906
188
#907
088
#910
073
#911
0117
#912
188
#913
088
#920
173
#921
1117
#922
188
1116
#923
088
#924
176
#925
175
#926
181
#927
079
#928
188
180
#929
088
#930
076
#931
098
035
#932
197
#933
075
#934
081
#935
179
#936
188
#937
088
#940
073
#941
0117
#942
188
#943
088
#950
173
#951
1117
#952
188
1116
#953
088
#954
176
#955
175
#956
181
#957
079
#958
188
180
#959
088
#960
076
#961
095
033
#962
194
#963
075
#964
081
#965
179
#966
188
#967
088
#970
073
#971
0117
#972
188
#973
088
#980
173
#981
1117
#982
188
1116
#983
088
#984
176
#985
175
#986
181
#987
079
#988
188
180
#989
088
#990
076
#991
092
031
#992
191
#993
075
#994
081
#995
179
#996
188
#997
088
#1000
073
#1001
0117
#1002
188
#1003
088
#1010
173
#1011
1117
#1012
188
1116
#1013
088
#1014
176
#1015
175
#1016
181
#1017
079
#1018
188
180
#1019
088
#1020
076
#1021
089
029
#1022
1115
#1023
075
#1024
081
#1025
179
#1026
188
#1027
088
#1030
073
#1031
0117
#1032
188
#1033
088
#1040
173
#1041
1117
#1042
188
1116
#1043
088
#1044
176
#1045
175
#1046
181
#1047
079
#1048
188
180
#1049
088
#1050
076
#1051
0113
046
#1052
091
#1053
094
#1054
097
#1055
0100
#1056
0103
#1057
0106
#1058
0109
#1059
0112
#1060
0115
#1061
190
#1062
075
#1063
081
#1064
179
#1065
188
#1066
088
#1070
073
#1071
0117
#1072
188
#1073
088
#1080
173
#1081
1117
#1082
188
1116
#1083
088
#1084
176
#1085
175
#1086
181
#1087
079
#1088
188
180
#1089
088
#1090
076
#1091
189
129
#1092
193
#1093
075
#1094
081
#1095
179
#1096
188
#1097
088
#1100
073
#1101
0117
#1102
188
#1103
088
#1110
173
#1111
1117
#1112
188
1116
#1113
088
#1114
176
#1115
175
#1116
181
#1117
079
#1118
188
180
#1119
088
#1120
076
#1121
192
131
#1122
196
#1123
075
#1124
081
#1125
179
#1126
188
#1127
088
#1130
073
#1131
0117
#1132
188
#1133
088
#1140
173
#1141
1117
#1142
188
1116
#1143
088
#1144
176
#1145
175
#1146
181
#1147
079
#1148
188
180
#1149
088
#1150
076
#1151
195
133
#1152
199
#1153
075
#1154
081
#1155
179
#1156
188
#1157
088
#1160
073
#1161
0117
#1162
188
#1163
088
#1170
173
#1171
1117
#1172
188
1116
#1173
088
#1174
176
#1175
175
#1176
181
#1177
079
#1178
188
180
#1179
088
#1180
076
#1181
198
135
#1182
1102
#1183
075
#1184
081
#1185
179
#1186
188
#1187
088
#1190
073
#1191
0117
#1192
188
#1193
088
#1200
173
#1201
1117
#1202
188
1116
#1203
088
#1204
176
#1205
175
#1206
181
#1207
079
#1208
188
180
#1209
088
#1210
076
#1211
1101
137
#1212
1105
#1213
075
#1214
081
#1215
179
#1216
188
#1217
088
#1220
073
#1221
0117
#1222
188
#1223
088
#1230
173
#1231
1117
#1232
188
1116
#1233
088
#1234
176
#1235
175
#1236
181
#1237
079
#1238
188
180
#1239
088
#1240
076
#1241
1104
139
#1242
1108
#1243
075
#1244
081
#1245
179
#1246
188
#1247
088
#1250
073
#1251
0117
#1252
188
#1253
088
#1260
173
#1261
1117
#1262
188
1116
#1263
088
#1264
176
#1265
175
#1266
181
#1267
079
#1268
188
180
#1269
088
#1270
076
#1271
1107
141
#1272
1111
#1273
075
#1274
081
#1275
179
#1276
188
#1277
088
#1280
073
#1281
0117
#1282
188
#1283
088
#1290
173
#1291
1117
#1292
188
1116
#1293
088
#1294
176
#1295
175
#1296
181
#1297
079
#1298
188
180
#1299
088
#1300
076
#1301
1110
143
#1302
1114
#1303
075
#1304
081
#1305
179
#1306
188
#1307
088
#1310
073
#1311
0117
#1312
188
#1313
088
#1320
173
#1321
1117
#1322
188
1116
#1323
088
#1324
176
#1325
175
#1326
181
#1327
079
#1328
188
180
#1329
088
#1330
076
#1331
1113
146
#1332
1112
#1333
090
#1334
093
#1335
096
#1336
099
#1337
0102
#1338
0105
#1339
0108
#1340
0111
#1341
0114
#1342
075
#1343
081
#1344
179
#1345
188
#1346
088
#1350
073
#1351
0117
#1352
188
#1353
088
#1360
173
#1361
1117
#1362
188
1116
#1363
088
#1364
176
#1365
175
#1366
181
#1367
079
#1368
188
180
#1369
088
#1370
076
#1371
0110
043
#1372
1109
#1373
075
#1374
081
#1375
179
#1376
188
#1377
088
#1380
073
#1381
0117
#1382
188
#1383
088
#1390
173
#1391
1117
#1392
188
1116
#1393
088
#1394
176
#1395
175
#1396
181
#1397
079
#1398
188
180
#1399
088
#1400
076
#1401
0107
041
#1402
1106
#1403
075
#1404
081
#1405
179
#1406
188
#1407
088
#1410
073
#1411
0117
#1412
188
#1413
088
#1420
173
#1421
1117
#1422
188
1116
#1423
088
#1424
176
#1425
175
#1426
181
#1427
079
#1428
188
180
#1429
088
#1430
076
#1431
0104
039
#1432
1103
#1433
075
#1434
081
#1435
179
#1436
188
#1437
088
#1440
073
#1441
0117
#1442
188
#1443
088
#1450
173
#1451
1117
#1452
188
1116
#1453
088
#1454
176
#1455
175
#1456
181
#1457
079
#1458
188
180
#1459
088
#1460
076
#1461
0101
037
#1462
1100
#1463
075
#1464
081
#1465
179
#1466
188
#1467
088
#1470
073
#1471
0117
#1472
188
#1473
088
#1480
173
#1481
1117
#1482
188
1116
#1483
088
#1484
176
#1485
175
#1486
181
#1487
079
#1488
188
180
#1489
088
#1490
076
#1491
098
035
#1492
197
#1493
075
#1494
081
#1495
179
#1496
188
#1497
088
#1500
073
#1501
0117
#1502
188
#1503
088
#1510
173
#1511
1117
#1512
188
1116
#1513
088
#1514
176
#1515
175
#1516
181
#1517
079
#1518
188
180
#1519
088
#1520
076
#1521
095
033
#1522
194
#1523
075
#1524
081
#1525
179
#1526
188
#1527
088
#1530
073
#1531
0117
#1532
188
#1533
088
#1540
173
#1541
1117
#1542
188
1116
#1543
088
#1544
176
#1545
175
#1546
181
#1547
079
#1548
188
180
#1549
088
#1550
076
#1551
092
031
#1552
191
#1553
075
#1554
081
#1555
179
#1556
188
#1557
088
#1560
073
#1561
0117
#1562
188
#1563
088
#1570
173
#1571
1117
#1572
188
1116
#1573
088
#1574
176
#1575
175
#1576
181
#1577
079
#1578
188
180
#1579
088
#1580
076
#1581
089
029
#1582
1115
#1583
075
#1584
081
#1585
179
#1586
188
#1587
088
#1590
073
#1591
0117
#1592
188
#1593
088
#1600
173
#1601
1117
#1602
188
1116
#1603
088
#1604
176
#1605
175
#1606
181
#1607
079
#1608
188
180
#1609
088
#1610
076
#1611
0113
046
#1612
091
#1613
094
#1614
097
#1615
0100
#1616
0103
#1617
0106
#1618
0109
#1619
0112
#1620
0115
#1621
190
#1622
075
#1623
081
#1624
179
#1625
188
#1626
088
#1630
073
#1631
0117
#1632
188
#1633
088
#1640
173
#1641
1117
#1642
188
1116
#1643
088
#1644
176
#1645
175
#1646
181
#1647
079
#1648
188
180
#1649
088
#1650
076
#1651
189
129
#1652
193
#1653
075
#1654
081
#1655
179
#1656
188
#1657
088
#1660
073
#1661
0117
#1662
188
#1663
088
#1670
173
#1671
1117
#1672
188
1116
#1673
088
#1674
176
#1675
175
#1676
181
#1677
079
#1678
188
180
#1679
088
#1680
076
#1681
192
131
#1682
196
#1683
075
#1684
081
#1685
179
#1686
188
#1687
088
#1690
073
#1691
0117
#1692
188
#1693
088
#1700
173
#1701
1117
#1702
188
1116
#1703
088
#1704
176
#1705
175
#1706
181
#1707
079
#1708
188
180
#1709
088
#1710
076
#1711
195
133
#1712
199
#1713
075
#1714
081
#1715
179
#1716
188
#1717
088
#1720
073
#1721
0117
#1722
188
#1723
088
#1730
173
#1731
1117
#1732
188
1116
#1733
088
#1734
176
#1735
175
#1736
181
#1737
079
#1738
188
180
#1739
088
#1740
076
#1741
198
135
#1742
1102
#1743
075
#1744
081
#1745
179
#1746
188
#1747
088
#1750
073
#1751
0117
#1752
188
#1753
088
#1760
173
#1761
1117
#1762
188
1116
#1763
088
#1764
176
#1765
175
#1766
181
#1767
079
#1768
188
180
#1769
088
#1770
076
#1771
1101
137
#1772
1105
#1773
075
#1774
081
#1775
179
#1776
188
#1777
088
#1780
073
#1781
0117
#1782
188
#1783
088
#1790
173
#1791
1117
#1792
188
1116
#1793
088
#1794
176
#1795
175
#1796
181
#1797
079
#1798
188
180
#1799
088
#1800
076
#1801
1104
139
#1802
1108
#1803
075
#1804
081
#1805
179
#1806
188
#1807
088
#1810
073
#1811
0117
#1812
188
#1813
088
#1820
173
#1821
1117
#1822
188
1116
#1823
088
#1824
176
#1825
175
#1826
181
#1827
079
#1828
188
180
#1829
088
#1830
076
#1831
1107
141
#1832
1111
#1833
075
#1834
081
#1835
179
#1836
188
#1837
088
#1840
073
#1841
0117
#1842
188
#1843
088
#1850
173
#1851
1117
#1852
188
1116
#1853
088
#1854
176
#1855
175
#1856
181
#1857
079
#1858
188
180
#1859
088
#1860
076
#1861
1110
143
#1862
1114
#1863
075
#1864
081
#1865
179
#1866
188
#1867
088
#1870
073
#1871
0117
#1872
188
#1873
088
#1880
173
#1881
1117
#1882
188
1116
#1883
088
#1884
176
#1885
175
#1886
181
#1887
079
#1888
188
180
#1889
088
#1890
076
#1891
1113
146
#1892
1112
#1893
090
#1894
093
#1895
096
#1896
099
#1897
0102
#1898
0105
#1899
0108
#1900
0111
#1901
0114
#1902
075
#1903
081
#1904
179
#1905
188
#1906
088
#1910
073
#1911
0117
#1912
188
#1913
088
#1920
173
#1921
1117
#1922
188
1116
#1923
088
#1924
176
#1925
175
#1926
181
#1927
079
#1928
188
180
#1929
088
#1930
076
#1931
0110
043
#1932
1109
#1933
075
#1934
081
#1935
179
#1936
188
#1937
088
#1940
073
#1941
0117
#1942
188
#1943
088
#1950
173
#1951
1117
#1952
188
1116
#1953
088
#1954
176
#1955
175
#1956
181
#1957
079
#1958
188
180
#1959
088
#1960
076
#1961
0107
041
#1962
1106
#1963
075
#1964
081
#1965
179
#1966
188
#1967
088
#1970
073
#1971
0117
#1972
188
#1973
088
#1980
173
#1981
1117
#1982
188
1116
#1983
088
#1984
176
#1985
175
#1986
181
#1987
079
#1988
188
180
#1989
088
#1990
076
#1991
0104
039
#1992
1103
#1993
075
#1994
081
#1995
179
#1996
188
#1997
088
#2000
073
#2001
0117
#2002
188
#2003
088
#2010
173
#2011
1117
#2012
188
1116
#2013
088
#2014
176
#2015
175
#2016
181
#2017
079
#2018
188
180
#2019
088
#2020
076
#2021
0101
037
#2022
1100
#2023
075
#2024
081
#2025
179
#2026
188
#2027
088
#2030
073
#2031
0117
#2032
188
#2033
088
#2040
173
#2041
1117
#2042
188
1116
#2043
088
#2044
176
#2045
175
#2046
181
#2047
079
#2048
188
180
#2049
088
#2050
076
#2051
098
035
#2052
197
#2053
075
#2054
081
#2055
179
#2056
188
#2057
088
#2060
073
#2061
0117
#2062
188
#2063
088
#2070
173
#2071
1117
#2072
188
1116
#2073
088
#2074
176
#2075
175
#2076
181
#2077
079
#2078
188
180
#2079
088
#2080
076
#2081
095
033
#2082
194
#2083
075
#2084
081
#2085
179
#2086
188
#2087
088
#2090
073
#2091
0117
#2092
188
#2093
088
#2100
173
#2101
1117
#2102
188
1116
#2103
088
#2104
176
#2105
175
#2106
181
#2107
079
#2108
188
180
#2109
088
#2110
076
#2111
092
031
#2112
191
#2113
075
#2114
081
#2115
179
#2116
188
#2117
088
#2120
073
#2121
0117
#2122
188
#2123
088
#2130
173
#2131
1117
#2132
188
1116
#2133
088
#2134
176
#2135
175
#2136
181
#2137
079
#2138
188
180
#2139
088
#2140
076
#2141
089
029
#2142
1115
#2143
075
#2144
081
#2145
179
#2146
188
#2147
088
#2150
073
#2151
0117
#2152
188
#2153
088
#2160
173
#2161
1117
#2162
188
1116
#2163
088
#2164
176
#2165
175
#2166
181
#2167
079
#2168
188
180
#2169
088
#2170
076
#2171
0113
046
#2172
091
#2173
094
#2174
097
#2175
0100
#2176
0103
#2177
0106
#2178
0109
#2179
0112
#2180
0115
#2181
190
#2182
075
#2183
081
#2184
179
#2185
188
#2186
088
#2190
073
#2191
0117
#2192
188
#2193
088
#2200
173
#2201
1117
#2202
188
1116
#2203
088
#2204
176
#2205
175
#2206
181
#2207
079
#2208
188
180
#2209
088
#2210
076
#2211
189
129
#2212
193
#2213
075
#2214
081
#2215
179
#2216
188
#2217
088
#2220
073
#2221
0117
#2222
188
#2223
088
#2230
173
#2231
1117
#2232
188
1116
#2233
088
#2234
176
#2235
175
#2236
181
#2237
079
#2238
188
180
#2239
088
#2240
076
#2241
192
131
#2242
196
#2243
075
#2244
081
#2245
179
#2246
188
#2247
088
#2250
073
#2251
0117
#2252
188
#2253
088
#2260
173
#2261
1117
#2262
188
1116
#2263
088
#2264
176
#2265
175
#2266
181
#2267
079
#2268
188
180
#2269
088
#2270
076
#2271
195
133
#2272
199
#2273
075
#2274
081
#2275
179
#2276
188
#2277
088
#2280
073
#2281
0117
#2282
188
#2283
088
#2290
173
#2291
1117
#2292
188
1116
#2293
088
#2294
176
#2295
175
#2296
181
#2297
079
#2298
188
180
#2299
088
#2300
076
#2301
198
135
#2302
1102
#2303
075
#2304
081
#2305
179
#2306
188
#2307
088
#2310
073
#2311
0117
#2312
188
#2313
088
#2320
b100 3
#2321
188
#2322
088
#2330
173
#2331
1117
#2332
188
1116
#2333
088
#2334
176
#2335
175
#2336
181
#2337
079
#2338
188
180
#2339
088
#2340
076
#2341
1101
137
#2342
1105
#2343
075
#2344
081
#2345
179
#2346
188
#2347
088
#2350
b111 3
#2351
b1 74
#2352
b1 85
#2353
184
#2354
183
#2355
188
182
#2356
088
#2357
b1 19
#2358
b10 25
#2359
b10 21
#2360
084
#2361
083
#2362
069
070
#2363
171
#2364
188
#2365
088
#2370
b1010 3
#2371
b10 74
#2372
b10 85
#2373
184
#2374
183
#2375
188
182
#2376
088
#2377
b10 19
#2378
b11 25
#2379
b11 21
#2380
084
#2381
083
#2382
169
170
#2383
071
#2384
188
#2385
088
#2390
b1100 3
#2391
188
#2392
088
#2400
073
#2401
0117
#2402
188
#2403
088
#2410
b1111 3
#2411
b11 74
#2412
b11 85
#2413
184
#2414
183
#2415
188
182
#2416
088
#2417
b11 19
#2418
b100 25
#2419
b100 21
#2420
084
#2421
083
#2422
069
070
#2423
171
#2424
188
#2425
088
#2430
b10001 3
#2431
188
#2432
088
#2440
173
#2441
1117
#2442
188
1116
#2443
088
#2444
188
#2445
088
#2450
b10100 3
#2451
b100 74
#2452
b100 85
#2453
157
#2454
184
#2455
183
#2456
153
154
#2457
188
182
#2458
088
#2459
b100 19
#2460
b101 25
#2461
b101 21
#2462
084
#2463
083
#2464
169
170
#2465
071
#2466
188
#2467
088
#2470
073
#2471
0117
#2472
188
#2473
088
#2480
b10111 3
#2481
188
#2482
088
#2490
b11000 3
#2491
188
#2492
088
#2500
173
#2501
1117
#2502
188
1116
#2503
088
#2504
188
#2505
088
#2510
b11001 3
#2511
b101 74
#2512
b101 85
#2513
184
#2514
183
#2515
188
182
#2516
088
#2517
b101 19
#2518
b110 25
#2519
b110 21
#2520
084
#2521
083
#2522
069
070
#2523
171
#2524
188
#2525
088
#2530
b11100 3
#2531
188
#2532
088
#2540
073
#2541
0117
#2542
188
#2543
088
#2550
b100000 3
#2551
b110 74
#2552
b110 85
#2553
184
#2554
183
#2555
188
182
#2556
088
#2557
b110 19
#2558
b111 25
#2559
b111 21
#2560
084
#2561
083
#2562
169
170
#2563
071
#2564
188
#2565
088
#2570
b100011 3
#2571
b111 74
#2572
b111 85
#2573
184
#2574
183
#2575
188
182
#2576
088
#2577
b111 19
#2578
b1000 25
#2579
b1000 21
#2580
084
#2581
083
#2582
069
070
#2583
171
#2584
188
#2585
088
#2590
173
#2591
1117
#2592
188
1116
#2593
088
#2594
188
#2595
088
#2600
b100101 3
#2601
188
#2602
088
#2610
073
#2611
0117
#2612
188
#2613
088
#2620
b101000 3
#2621
b1000 74
#2622
b1000 85
#2623
184
#2624
183
#2625
188
182
#2626
088
#2627
b1000 19
#2628
b1001 25
#2629
b1001 21
#2630
084
#2631
083
#2632
169
170
#2633
071
#2634
188
#2635
088
#2640
b101010 3
#2641
188
#2642
088
#2650
173
#2651
1117
#2652
188
1116
#2653
088
#2654
176
#2655
175
#2656
181
#2657
079
#2658
188
180
#2659
088
#2660
076
#2661
1104
139
#2662
1108
#2663
075
#2664
081
#2665
179
#2666
188
#2667
088
#2670
b101100 3
#2671
188
#2672
088
#2680
b101111 3
#2681
b1001 74
#2682
b1001 85
#2683
184
#2684
183
#2685
188
182
#2686
088
#2687
b1001 19
#2688
b1010 25
#2689
b1010 21
#2690
084
#2691
083
#2692
069
070
#2693
171
#2694
188
#2695
088
#2700
073
#2701
0117
#2702
188
#2703
088
#2710
b110010 3
#2711
b1010 74
#2712
b1010 85
#2713
184
#2714
183
#2715
188
182
#2716
088
#2717
b1010 19
#2718
b1011 25
#2719
b1011 21
#2720
084
#2721
083
#2722
169
170
#2723
071
#2724
188
#2725
088
#2730
b110100 3
#2731
188
#2732
088
#2740
b110111 3
#2741
b1011 74
#2742
b1011 85
#2743
184
#2744
183
#2745
188
182
#2746
088
#2747
b1011 19
#2748
b1100 25
#2749
b1100 21
#2750
084
#2751
083
#2752
069
070
#2753
171
#2754
188
#2755
088
#2760
173
#2761
1117
#2762
188
1116
#2763
088
#2764
188
#2765
088
#2770
b111001 3
#2771
188
#2772
088
#2780
b111011 3
#2781
188
#2782
088
#2790
073
#2791
0117
#2792
188
#2793
088
#2800
b111101 3
#2801
b1100 74
#2802
b1100 85
#2803
184
#2804
183
#2805
188
182
#2806
088
#2807
b1100 19
#2808
b1101 25
#2809
b1101 21
#2810
084
#2811
083
#2812
169
170
#2813
071
#2814
188
#2815
088
#2820
b111110 3
#2821
188
#2822
088
#2830
173
#2831
1117
#2832
188
1116
#2833
088
#2834
188
#2835
088
#2840
b111111 3
#2841
188
#2842
088
#2850
b1000001 3
#2851
b1101 74
#2852
b1101 85
#2853
184
#2854
183
#2855
188
182
#2856
088
#2857
b1101 19
#2858
b1110 25
#2859
b1110 21
#2860
084
#2861
083
#2862
069
070
#2863
171
#2864
188
#2865
088
#2870
073
#2871
0117
#2872
188
