src/sortm28_1.vcd
$date
    Wed Feb 27 21:30:29 2013
$end
$version
    immediate C @(#)     $Id: sortm28_1.vcd,v 1.1 2013/02/28 00:36:03 jw Exp $
$end
$timescale
     1 us
$end

$scope module sortm28 $end
$var wire 1 2 IX0.0 $end
$var wire 1 3 IX0.1 $end
$var wire 1 4 IX0.2 $end
$var wire 1 5 IX0.3 $end
$var wire 1 6 IX0.4 $end
$var wire 1 7 IX0.5 $end
$var wire 1 8 IX0.6 $end
$var wire 1 9 IX0.7 $end
$var wire 1 60 QX0.0 $end
$var wire 1 63 QX0.1 $end
$var wire 1 66 QX0.2 $end
$var wire 1 69 QX0.3 $end
$var wire 1 72 QX0.4 $end
$var wire 1 75 QX0.5 $end
$var wire 1 78 QX0.6 $end
$var wire 1 81 QX0.7 $end
$var wire 1 28 TX0.4 $end
$scope module _f1 $end
$var wire 1 29 _f1_1 $end
$upscope $end
$var integer 32 30 busa $end
$scope module busa $end
$var integer 32 31 busa_1 $end
$var integer 32 32 busa_2 $end
$var integer 32 33 busa_3 $end
$var integer 32 34 busa_4 $end
$var integer 32 35 busa_5 $end
$var integer 32 36 busa_6 $end
$var integer 32 37 busa_7 $end
$var integer 32 38 busa_8 $end
$upscope $end
$var integer 32 39 del $end
$var integer 32 40 dest $end
$scope module dest $end
$var integer 32 41 dest_1 $end
$var integer 32 42 dest_2 $end
$var integer 32 43 dest_3 $end
$upscope $end
$var wire 1 44 dt0 $end
$scope module dt0 $end
$var wire 1 45 dt0_1 $end
$upscope $end
$var wire 1 46 dt1 $end
$scope module dt1 $end
$var wire 1 47 dt1_1 $end
$upscope $end
$var wire 1 48 dt2 $end
$scope module dt2 $end
$var wire 1 49 dt2_1 $end
$upscope $end
$var wire 1 50 dt3 $end
$scope module dt3 $end
$var wire 1 51 dt3_1 $end
$upscope $end
$var wire 1 52 dt4 $end
$scope module dt4 $end
$var wire 1 53 dt4_1 $end
$upscope $end
$var wire 1 54 dt5 $end
$scope module dt5 $end
$var wire 1 55 dt5_1 $end
$upscope $end
$var wire 1 56 dt6 $end
$scope module dt6 $end
$var wire 1 57 dt6_1 $end
$upscope $end
$var wire 1 58 dt7 $end
$scope module dt7 $end
$var wire 1 59 dt7_1 $end
$upscope $end
$var wire 1 60 gate0 $end
$scope module gate0 $end
$var wire 1 61 gate0_1 $end
$var wire 1 62 gate0_2 $end
$upscope $end
$var wire 1 63 gate1 $end
$scope module gate1 $end
$var wire 1 64 gate1_1 $end
$var wire 1 65 gate1_2 $end
$upscope $end
$var wire 1 66 gate2 $end
$scope module gate2 $end
$var wire 1 67 gate2_1 $end
$var wire 1 68 gate2_2 $end
$upscope $end
$var wire 1 69 gate3 $end
$scope module gate3 $end
$var wire 1 70 gate3_1 $end
$var wire 1 71 gate3_2 $end
$upscope $end
$var wire 1 72 gate4 $end
$scope module gate4 $end
$var wire 1 73 gate4_1 $end
$var wire 1 74 gate4_2 $end
$upscope $end
$var wire 1 75 gate5 $end
$scope module gate5 $end
$var wire 1 76 gate5_1 $end
$var wire 1 77 gate5_2 $end
$upscope $end
$var wire 1 78 gate6 $end
$scope module gate6 $end
$var wire 1 79 gate6_1 $end
$var wire 1 80 gate6_2 $end
$upscope $end
$var wire 1 81 gate7 $end
$scope module gate7 $end
$var wire 1 82 gate7_1 $end
$var wire 1 83 gate7_2 $end
$upscope $end
$var wire 1 84 iClock $end
$var wire 1 85 inp0 $end
$var wire 1 86 inp1 $end
$var wire 1 87 inp2 $end
$var integer 32 88 ma0 $end
$scope module ma0 $end
$var integer 32 89 ma0_1 $end
$var integer 32 90 ma0_2 $end
$upscope $end
$var integer 32 91 ma1 $end
$scope module ma1 $end
$var integer 32 92 ma1_1 $end
$var integer 32 93 ma1_2 $end
$upscope $end
$var integer 32 94 ma2 $end
$scope module ma2 $end
$var integer 32 95 ma2_1 $end
$var integer 32 96 ma2_2 $end
$upscope $end
$var integer 32 97 ma3 $end
$scope module ma3 $end
$var integer 32 98 ma3_1 $end
$var integer 32 99 ma3_2 $end
$upscope $end
$var integer 32 100 ma4 $end
$scope module ma4 $end
$var integer 32 101 ma4_1 $end
$var integer 32 102 ma4_2 $end
$upscope $end
$var integer 32 103 ma5 $end
$scope module ma5 $end
$var integer 32 104 ma5_1 $end
$var integer 32 105 ma5_2 $end
$upscope $end
$var integer 32 106 ma6 $end
$scope module ma6 $end
$var integer 32 107 ma6_1 $end
$var integer 32 108 ma6_2 $end
$upscope $end
$var integer 32 109 ma7 $end
$scope module ma7 $end
$var integer 32 110 ma7_1 $end
$var integer 32 111 ma7_2 $end
$upscope $end
$scope module open $end
$var wire 1 113 open[0] $end
$var wire 1 114 open[1] $end
$var wire 1 115 open[2] $end
$var wire 1 116 open[3] $end
$var wire 1 117 open[4] $end
$var wire 1 118 open[5] $end
$var wire 1 119 open[6] $end
$var wire 1 120 open[7] $end
$upscope $end
$var wire 1 113 open0 $end
$var wire 1 114 open1 $end
$var wire 1 115 open2 $end
$var wire 1 116 open3 $end
$var wire 1 117 open4 $end
$var wire 1 118 open5 $end
$var wire 1 119 open6 $end
$var wire 1 120 open7 $end
$var wire 1 121 pt0 $end
$scope module pt0 $end
$var wire 1 122 pt0_1 $end
$upscope $end
$var wire 1 123 pt1 $end
$scope module pt1 $end
$var wire 1 124 pt1_1 $end
$upscope $end
$var wire 1 125 pt2 $end
$scope module pt2 $end
$var wire 1 126 pt2_1 $end
$upscope $end
$var wire 1 127 pt3 $end
$scope module pt3 $end
$var wire 1 128 pt3_1 $end
$upscope $end
$var wire 1 129 pt4 $end
$scope module pt4 $end
$var wire 1 130 pt4_1 $end
$upscope $end
$var wire 1 131 pt5 $end
$scope module pt5 $end
$var wire 1 132 pt5_1 $end
$upscope $end
$var wire 1 133 pt6 $end
$scope module pt6 $end
$var wire 1 134 pt6_1 $end
$upscope $end
$var wire 1 135 pt7 $end
$scope module pt7 $end
$var wire 1 136 pt7_1 $end
$upscope $end
$var event 1 137 tick $end
$scope module tick $end
$var wire 1 138 tick_1 $end
$var wire 1 139 tick_2 $end
$upscope $end
$var wire 1 140 tr0 $end
$scope module tr0 $end
$var wire 1 141 tr0_1 $end
$var wire 1 142 tr0_2 $end
$upscope $end
$var wire 1 143 tr1 $end
$scope module tr1 $end
$var wire 1 144 tr1_1 $end
$var wire 1 145 tr1_2 $end
$upscope $end
$var wire 1 146 tr2 $end
$scope module tr2 $end
$var wire 1 147 tr2_1 $end
$var wire 1 148 tr2_2 $end
$upscope $end
$var wire 1 149 tr3 $end
$scope module tr3 $end
$var wire 1 150 tr3_1 $end
$var wire 1 151 tr3_2 $end
$upscope $end
$var wire 1 152 tr4 $end
$scope module tr4 $end
$var wire 1 153 tr4_1 $end
$var wire 1 154 tr4_2 $end
$upscope $end
$var wire 1 155 tr5 $end
$scope module tr5 $end
$var wire 1 156 tr5_1 $end
$var wire 1 157 tr5_2 $end
$upscope $end
$var wire 1 158 tr6 $end
$scope module tr6 $end
$var wire 1 159 tr6_1 $end
$var wire 1 160 tr6_2 $end
$upscope $end
$var wire 1 161 tr7 $end
$scope module tr7 $end
$var wire 1 162 tr7_1 $end
$var wire 1 163 tr7_2 $end
$upscope $end
$var wire 1 164 trans $end
$scope module trans $end
$var wire 1 165 trans_1 $end
$upscope $end
$var wire 1 166 trig $end
$var wire 1 167 xt0 $end
$var wire 1 168 xt1 $end
$var wire 1 169 xt2 $end
$var wire 1 170 xt3 $end
$var wire 1 171 xt4 $end
$var wire 1 172 xt5 $end
$var wire 1 173 xt6 $end
$var wire 1 174 xt7 $end
$upscope $end
$enddefinitions $end

$dumpvars 02 03 04 05 06 07 08 09 028 029 b0 30 b0 31 b0 32 b0 33 b0 34 b0 35 b0 36 b0 37 b0 38 b1100 39 b0 40 b0 41 b0 42 b0 43 044 045 046 047 048 049 050 051 052 053 054 055 056 057 058 059 060 061 062 063 064 065 066 067 068 069 070 071 072 073 074 075 076 077 078 079 080 081 082 083 084 085 086 087 b0 88 b0 89 b0 90 b0 91 b0 92 b0 93 b0 94 b0 95 b0 96 b0 97 b0 98 b0 99 b0 100 b0 101 b0 102 b0 103 b0 104 b0 105 b0 106 b0 107 b0 108 b0 109 b0 110 b0 111 0113 0114 0115 0116 0117 0118 0119 0120 0121 0122 0123 0124 0125 0126 0127 0128 0129 0130 0131 0132 0133 0134 0135 0136 0137 0138 1139 0140 0141 0142 0143 0144 0145 0146 0147 0148 0149 0150 0151 0152 0153 0154 0155 0156 0157 0158 0159 0160 0161 0162 0163 0164 0165 0166 0167 0168 0169 0170 0171 0172 0173 0174 $end
#1
184
#2
1137
#3
084
#10
128
#11
1138
#12
0139
#13
184
#14
1137
#15
084
#20
028
#21
0138
#22
1139
#23
184
#24
1137
#25
084
#30
128
#31
1138
#32
0139
#33
184
#34
1137
#35
084
#40
028
#41
0138
#42
1139
#43
184
#44
1137
#45
084
#50
128
#51
1138
#52
0139
#53
184
#54
1137
#55
084
#60
028
#61
0138
#62
1139
#63
184
#64
1137
#65
084
#70
128
#71
1138
#72
0139
#73
184
#74
1137
#75
084
#80
028
#81
0138
#82
1139
#83
184
#84
1137
#85
084
#90
128
#91
1138
#92
0139
#93
184
#94
1137
#95
084
#100
028
#101
0138
#102
1139
#103
184
#104
1137
#105
084
#110
128
#111
1138
#112
0139
#113
184
#114
1137
#115
084
#120
028
#121
0138
#122
1139
#123
184
#124
1137
#125
084
#130
128
#131
1138
#132
0139
#133
184
#134
1137
#135
084
#140
028
#141
0138
#142
1139
#143
184
#144
1137
#145
084
#150
128
#151
1138
#152
0139
#153
184
#154
1137
#155
084
#160
028
#161
0138
#162
1139
#163
184
#164
1137
#165
084
#170
128
#171
1138
#172
0139
#173
184
#174
1137
#175
084
#180
028
#181
0138
#182
1139
#183
184
#184
1137
#185
084
#190
128
#191
1138
#192
0139
#193
184
#194
1137
#195
084
#200
028
#201
0138
#202
1139
#203
184
#204
1137
#205
084
#210
128
#211
1138
#212
0139
#213
184
#214
1137
#215
084
#220
028
#221
0138
#222
1139
#223
184
#224
1137
#225
084
#230
128
#231
1138
#232
0139
#233
184
#234
1137
#235
084
#240
028
#241
0138
#242
1139
#243
184
#244
1137
#245
084
#250
128
#251
1138
#252
0139
#253
184
#254
1137
#255
084
#260
028
#261
0138
#262
1139
#263
184
#264
1137
#265
084
#270
128
#271
1138
#272
0139
#273
184
#274
1137
#275
084
#280
028
#281
0138
#282
1139
#283
184
#284
1137
#285
084
#290
128
#291
1138
#292
0139
#293
184
#294
1137
#295
084
#300
028
#301
0138
#302
1139
#303
184
#304
1137
#305
084
#310
128
#311
1138
#312
0139
#313
184
#314
1137
#315
084
#320
028
#321
0138
#322
1139
#323
184
#324
1137
#325
084
#330
128
#331
1138
#332
0139
#333
184
#334
1137
#335
084
#340
028
#341
0138
#342
1139
#343
184
#344
1137
#345
084
#350
128
#351
1138
#352
0139
#353
184
#354
1137
#355
084
#360
028
#361
0138
#362
1139
#363
184
#364
1137
#365
084
#370
128
#371
1138
#372
0139
#373
184
#374
1137
#375
084
#380
028
#381
0138
#382
1139
#383
184
#384
1137
#385
084
#390
128
#391
1138
#392
0139
#393
184
#394
1137
#395
084
#400
028
#401
0138
#402
1139
#403
184
#404
1137
#405
084
#410
128
#411
1138
#412
0139
#413
184
#414
1137
#415
084
#420
028
#421
0138
#422
1139
#423
184
#424
1137
#425
084
#430
128
#431
1138
#432
0139
#433
184
#434
1137
#435
084
#440
028
#441
0138
#442
1139
#443
184
#444
1137
#445
084
#450
128
#451
1138
#452
0139
#453
184
#454
1137
#455
084
#460
028
#461
0138
#462
1139
#463
184
#464
1137
#465
084
#470
128
#471
1138
#472
0139
#473
184
#474
1137
#475
084
#480
028
#481
0138
#482
1139
#483
184
#484
1137
#485
084
#490
128
#491
1138
#492
0139
#493
184
#494
1137
#495
084
#500
028
#501
0138
#502
1139
#503
184
#504
1137
#505
084
#510
128
#511
1138
#512
0139
#513
184
#514
1137
#515
084
#520
028
#521
0138
#522
1139
#523
184
#524
1137
#525
084
#530
128
#531
1138
#532
0139
#533
184
#534
1137
#535
084
#540
028
#541
0138
#542
1139
#543
184
#544
1137
#545
084
#550
128
#551
1138
#552
0139
#553
184
#554
1137
#555
084
#560
028
#561
0138
#562
1139
#563
184
#564
1137
#565
084
#570
128
#571
1138
#572
0139
#573
184
#574
1137
#575
084
#580
028
#581
0138
#582
1139
#583
184
#584
1137
#585
084
#590
128
#591
1138
#592
0139
#593
184
#594
1137
#595
084
#600
028
#601
0138
#602
1139
#603
184
#604
1137
#605
084
#610
128
#611
1138
#612
0139
#613
184
#614
1137
#615
084
#620
028
#621
0138
#622
1139
#623
184
#624
1137
#625
084
#630
128
#631
1138
#632
0139
#633
184
#634
1137
#635
084
#640
028
#641
0138
#642
1139
#643
184
#644
1137
#645
084
#650
19
#651
185
#652
186
#653
187
#654
1165
#655
1164
#656
b1 41
#657
b1 42
#658
b1 43
#659
1141
#660
b111 40
#661
b1011011 39
#662
184
#663
0164
#664
1140
#665
084
#666
0141
#667
145
#668
144
#669
1122
#670
b1 90
#671
b111 89
#672
184
#673
044
#674
b111 88
#675
084
#676
b0 90
#680
128
#681
1138
#682
0139
#683
184
#684
1137
#685
084
#690
028
#691
0138
#692
1139
#693
184
#694
1137
#695
084
#700
128
#701
1138
#702
0139
#703
184
#704
1137
#705
084
#710
028
#711
0138
#712
1139
#713
184
#714
1137
#715
084
#720
128
#721
1138
#722
0139
#723
184
#724
1137
#725
084
#730
09
#731
085
#732
086
#733
087
#734
0165
#735
b0 41
#736
b0 42
#737
b0 43
#738
b0 40
#739
b1100 39
#740
184
#741
084
#750
028
#751
0138
#752
1139
#753
184
#754
1137
#755
084
#760
128
#761
1138
#762
0139
#763
184
#764
1137
#765
084
#770
028
#771
0138
#772
1139
#773
184
#774
1137
#775
084
#780
128
#781
1138
#782
0139
#783
184
#784
1137
#785
084
#790
028
#791
0138
#792
1139
#793
184
#794
1137
#795
084
#800
128
#801
1138
#802
0139
#803
184
#804
1137
#805
084
#810
028
#811
0138
#812
1139
#813
184
#814
1137
#815
084
#820
18
#821
186
#822
187
#823
1165
#824
1164
#825
b1 42
#826
b1 43
#827
1144
#828
b110 40
#829
b1010000 39
#830
184
#831
0164
#832
1143
#833
084
#834
0144
#835
147
#836
146
#837
1124
#838
b1 93
#839
b110 92
#840
184
#841
046
#842
b110 91
#843
084
#844
b0 93
#850
128
#851
1138
#852
0139
#853
184
#854
1137
#855
084
#860
028
#861
0138
#862
1139
#863
184
#864
1137
#865
084
#870
128
#871
1138
#872
0139
#873
184
#874
1137
#875
084
#880
028
#881
0138
#882
1139
#883
184
#884
1137
#885
084
#890
128
#891
1138
#892
0139
#893
184
#894
1137
#895
084
#900
08
#901
086
#902
087
#903
0165
#904
b0 42
#905
b0 43
#906
b0 40
#907
b1100 39
#908
184
#909
084
#920
028
#921
0138
#922
1139
#923
184
#924
1137
#925
084
#930
128
#931
1138
#932
0139
#933
184
#934
1137
#935
084
#940
028
#941
0138
#942
1139
#943
184
#944
1137
#945
084
#950
128
#951
1138
#952
0139
#953
184
#954
1137
#955
084
#960
028
#961
0138
#962
1139
#963
184
#964
1137
#965
084
#970
17
#971
185
#972
187
#973
1165
#974
1164
#975
b1 41
#976
b1 43
#977
1147
#978
b101 40
#979
b1000100 39
#980
184
#981
0164
#982
1146
#983
084
#984
0147
#985
149
#986
148
#987
1126
#988
b1 96
#989
b101 95
#990
184
#991
048
#992
b101 94
#993
084
#994
b0 96
#1000
128
#1001
1138
#1002
0139
#1003
184
#1004
1137
#1005
084
#1010
028
#1011
0138
#1012
1139
#1013
184
#1014
1137
#1015
084
#1020
128
#1021
1138
#1022
0139
#1023
184
#1024
1137
#1025
084
#1030
028
#1031
0138
#1032
1139
#1033
184
#1034
1137
#1035
084
#1040
128
#1041
1138
#1042
0139
#1043
184
#1044
1137
#1045
084
#1050
07
#1051
085
#1052
087
#1053
0165
#1054
b0 41
#1055
b0 43
#1056
b0 40
#1057
b1100 39
#1058
184
#1059
084
#1070
028
#1071
0138
#1072
1139
#1073
184
#1074
1137
#1075
084
#1080
128
#1081
1138
#1082
0139
#1083
184
#1084
1137
#1085
084
#1090
028
#1091
0138
#1092
1139
#1093
184
#1094
1137
#1095
084
#1100
128
#1101
1138
#1102
0139
#1103
184
#1104
1137
#1105
084
#1110
028
#1111
0138
#1112
1139
#1113
184
#1114
1137
#1115
084
#1120
128
#1121
1138
#1122
0139
#1123
184
#1124
1137
#1125
084
#1130
028
#1131
0138
#1132
1139
#1133
184
#1134
1137
#1135
084
#1140
16
#1141
187
#1142
1165
#1143
1164
#1144
b1 43
#1145
1150
#1146
b100 40
#1147
b111001 39
#1148
184
#1149
0164
#1150
1149
#1151
084
#1152
0150
#1153
151
#1154
150
#1155
1128
#1156
b1 99
#1157
b100 98
#1158
184
#1159
050
#1160
b100 97
#1161
084
#1162
b0 99
#1170
128
#1171
1138
#1172
0139
#1173
184
#1174
1137
#1175
084
#1180
028
#1181
0138
#1182
1139
#1183
184
#1184
1137
#1185
084
#1190
128
#1191
1138
#1192
0139
#1193
184
#1194
1137
#1195
084
#1200
028
#1201
0138
#1202
1139
#1203
184
#1204
1137
#1205
084
#1210
128
#1211
1138
#1212
0139
#1213
184
#1214
1137
#1215
084
#1220
06
#1221
087
#1222
0165
#1223
b0 43
#1224
b0 40
#1225
b1100 39
#1226
184
#1227
084
#1230
028
#1231
0138
#1232
1139
#1233
184
#1234
1137
#1235
084
#1240
128
#1241
1138
#1242
0139
#1243
184
#1244
1137
#1245
084
#1250
028
#1251
0138
#1252
1139
#1253
184
#1254
1137
#1255
084
#1260
128
#1261
1138
#1262
0139
#1263
184
#1264
1137
#1265
084
#1270
028
#1271
0138
#1272
1139
#1273
184
#1274
1137
#1275
084
#1280
128
#1281
1138
#1282
0139
#1283
184
#1284
1137
#1285
084
#1290
028
#1291
0138
#1292
1139
#1293
184
#1294
1137
#1295
084
#1300
128
#1301
1138
#1302
0139
#1303
184
#1304
1137
#1305
084
#1310
028
#1311
0138
#1312
1139
#1313
184
#1314
1137
#1315
084
#1320
15
#1321
185
#1322
186
#1323
1165
#1324
1164
#1325
b1 41
#1326
b1 42
#1327
1153
#1328
b11 40
#1329
b101110 39
#1330
184
#1331
0164
#1332
1152
#1333
084
#1334
0153
#1335
153
#1336
152
#1337
1130
#1338
b1 102
#1339
b11 101
#1340
184
#1341
052
#1342
b11 100
#1343
084
#1344
b0 102
#1350
128
#1351
1138
#1352
0139
#1353
184
#1354
1137
#1355
084
#1360
028
#1361
0138
#1362
1139
#1363
184
#1364
1137
#1365
084
#1370
128
#1371
1138
#1372
0139
#1373
184
#1374
1137
#1375
084
#1380
028
#1381
0138
#1382
1139
#1383
184
#1384
1137
#1385
084
#1390
05
#1391
085
#1392
086
#1393
0165
#1394
b0 41
#1395
b0 42
#1396
b0 40
#1397
b1100 39
#1398
184
#1399
084
#1410
128
#1411
1138
#1412
0139
#1413
184
#1414
1137
#1415
084
#1420
028
#1421
0138
#1422
1139
#1423
184
#1424
1137
#1425
084
#1430
128
#1431
1138
#1432
0139
#1433
184
#1434
1137
#1435
084
#1440
028
#1441
0138
#1442
1139
#1443
184
#1444
1137
#1445
084
#1450
128
#1451
1138
#1452
0139
#1453
184
#1454
1137
#1455
084
#1460
028
#1461
0138
#1462
1139
#1463
184
#1464
1137
#1465
084
#1470
14
#1471
186
#1472
1165
#1473
1164
#1474
b1 42
#1475
1156
#1476
b10 40
#1477
b100010 39
#1478
184
#1479
0164
#1480
1155
#1481
084
#1482
0156
#1483
155
#1484
154
#1485
1132
#1486
b1 105
#1487
b10 104
#1488
184
#1489
054
#1490
b10 103
#1491
084
#1492
b0 105
#1500
128
#1501
1138
#1502
0139
#1503
184
#1504
1137
#1505
084
#1510
028
#1511
0138
#1512
1139
#1513
184
#1514
1137
#1515
084
#1520
128
#1521
1138
#1522
0139
#1523
184
#1524
1137
#1525
084
#1530
028
#1531
0138
#1532
1139
#1533
184
#1534
1137
#1535
084
#1540
128
#1541
1138
#1542
0139
#1543
184
#1544
1137
#1545
084
#1550
04
#1551
086
#1552
0165
#1553
b0 42
#1554
b0 40
#1555
b1100 39
#1556
184
#1557
084
#1560
028
#1561
0138
#1562
1139
#1563
184
#1564
1137
#1565
084
#1570
128
#1571
1138
#1572
0139
#1573
184
#1574
1137
#1575
084
#1580
028
#1581
0138
#1582
1139
#1583
184
#1584
1137
#1585
084
#1590
128
#1591
1138
#1592
0139
#1593
184
#1594
1137
#1595
084
#1600
028
#1601
0138
#1602
1139
#1603
184
#1604
1137
#1605
084
#1610
128
#1611
1138
#1612
0139
#1613
184
#1614
1137
#1615
084
#1620
13
#1621
185
#1622
1165
#1623
1164
#1624
b1 41
#1625
1159
#1626
b1 40
#1627
b10111 39
#1628
184
#1629
0164
#1630
1158
#1631
084
#1632
0159
#1633
157
#1634
156
#1635
1134
#1636
b1 108
#1637
b1 107
#1638
184
#1639
056
#1640
b1 106
#1641
084
#1642
b0 108
#1650
028
#1651
0138
#1652
1139
#1653
184
#1654
1137
#1655
084
#1660
128
#1661
1138
#1662
0139
#1663
184
#1664
1137
#1665
084
#1670
028
#1671
0138
#1672
1139
#1673
184
#1674
1137
#1675
084
#1680
128
#1681
1138
#1682
0139
#1683
184
#1684
1137
#1685
084
#1690
028
#1691
0138
#1692
1139
#1693
184
#1694
1137
#1695
084
#1700
03
#1701
085
#1702
0165
#1703
b0 41
#1704
b0 40
#1705
b1100 39
#1706
184
#1707
084
#1710
128
#1711
1138
#1712
0139
#1713
184
#1714
1137
#1715
084
#1720
028
#1721
0138
#1722
1139
#1723
184
#1724
1137
#1725
084
#1730
128
#1731
1138
#1732
0139
#1733
184
#1734
1137
#1735
084
#1740
028
#1741
0138
#1742
1139
#1743
184
#1744
1137
#1745
084
#1750
128
#1751
1138
#1752
0139
#1753
184
#1754
1137
#1755
084
#1760
12
#1761
1165
#1762
1164
#1763
1162
#1764
184
#1765
0164
#1766
1161
#1767
084
#1768
0162
#1769
159
#1770
158
#1771
1136
#1772
b1 111
#1773
184
#1774
058
#1775
084
#1776
b0 111
#1780
028
#1781
0138
#1782
1139
#1783
184
#1784
1137
#1785
084
#1790
128
#1791
1138
#1792
0139
#1793
184
#1794
1137
#1795
084
#1800
028
#1801
0138
#1802
1139
#1803
184
#1804
1137
#1805
084
#1810
128
#1811
1138
#1812
0139
#1813
184
#1814
1137
#1815
084
#1820
028
#1821
0138
#1822
1139
#1823
184
#1824
1137
#1825
084
#1830
02
#1831
0165
#1832
184
#1833
084
#1840
128
#1841
1138
#1842
0139
#1843
184
#1844
1137
#1845
084
#1850
028
#1851
0138
#1852
1139
#1853
184
#1854
1137
#1855
084
#1860
128
#1861
1138
#1862
0139
#1863
184
#1864
1137
#1865
084
#1870
028
#1871
0138
#1872
1139
#1873
184
#1874
1137
#1875
084
#1880
128
#1881
1138
#1882
0139
#1883
184
#1884
1137
#1885
084
#1890
028
#1891
0138
#1892
1139
#1893
184
#1894
1137
#1895
1125
#1896
084
#1897
1169
#1898
b1 33
#1899
1148
#1900
1166
#1901
129
#1902
b101 30
#1903
184
#1904
0146
#1905
084
#1906
1118
#1907
049
#1908
0126
#1909
0169
#1910
176
#1911
b0 33
#1912
0148
#1913
0166
#1914
029
#1915
b0 30
#1916
184
#1917
0125
#1918
175
#1919
084
#1920
0118
#1921
177
#1922
076
#1930
128
#1931
1138
#1932
0139
#1933
184
#1934
1137
#1935
1121
#1936
1127
#1937
1135
#1938
084
#1939
1167
#1940
b1 31
#1941
1142
#1942
1166
#1943
129
#1944
b111 30
#1945
184
#1946
0140
#1947
084
#1948
1120
#1949
045
#1950
0122
#1951
0167
#1952
182
#1953
b0 31
#1954
0142
#1955
0166
#1956
029
#1957
b0 30
#1958
184
#1959
0121
#1960
181
#1961
084
#1962
0120
#1963
1170
#1964
183
#1965
082
#1966
b1 34
#1967
1151
#1968
1166
#1969
129
#1970
b100 30
#1971
184
#1972
0149
#1973
084
#1974
1117
#1975
051
#1976
0128
#1977
0170
#1978
173
#1979
b0 34
#1980
0151
#1981
0166
#1982
029
#1983
b0 30
#1984
184
#1985
0127
#1986
172
#1987
084
#1988
0117
#1989
1174
#1990
174
#1991
073
#1992
b1 38
#1993
1163
#1994
1166
#1995
129
#1996
b0 30
#1997
184
#1998
0161
#1999
084
#2000
1113
#2001
059
#2002
0136
#2003
0174
#2004
161
#2005
b0 38
#2006
0163
#2007
0166
#2008
029
#2009
b0 30
#2010
184
#2011
0135
#2012
160
#2013
084
#2014
0113
#2015
162
#2016
061
#2020
028
#2021
0138
#2022
1139
#2023
184
#2024
1137
#2025
1123
#2026
1131
#2027
1133
#2028
084
#2029
1168
#2030
b1 32
#2031
1145
#2032
1166
#2033
129
#2034
b110 30
#2035
184
#2036
0143
#2037
084
#2038
1119
#2039
047
#2040
0124
#2041
0168
#2042
179
#2043
b0 32
#2044
0145
#2045
0166
#2046
029
#2047
b0 30
#2048
184
#2049
0123
#2050
178
#2051
084
#2052
0119
#2053
1172
#2054
180
#2055
079
#2056
b1 36
#2057
1157
#2058
1166
#2059
129
#2060
b10 30
#2061
184
#2062
0155
#2063
084
#2064
1115
#2065
055
#2066
0132
#2067
0172
#2068
167
#2069
b0 36
#2070
0157
#2071
0166
#2072
029
#2073
b0 30
#2074
184
#2075
0131
#2076
166
#2077
084
#2078
0115
#2079
1173
#2080
168
#2081
067
#2082
b1 37
#2083
1160
#2084
1166
#2085
129
#2086
b1 30
#2087
184
#2088
0158
#2089
084
#2090
1114
#2091
057
#2092
0134
#2093
0173
#2094
164
#2095
b0 37
#2096
0160
#2097
0166
#2098
029
#2099
b0 30
#2100
184
#2101
0133
#2102
163
#2103
084
#2104
0114
#2105
165
#2106
064
#2110
128
#2111
1138
#2112
0139
#2113
184
#2114
1137
#2115
084
#2120
028
#2121
0138
#2122
1139
#2123
184
#2124
1137
#2125
1129
#2126
084
#2127
1171
#2128
b1 35
#2129
1154
#2130
1166
#2131
129
#2132
b11 30
#2133
184
#2134
0152
#2135
084
#2136
1116
#2137
053
#2138
0130
#2139
0171
#2140
170
#2141
b0 35
#2142
0154
#2143
0166
#2144
029
#2145
b0 30
#2146
184
#2147
0129
#2148
169
#2149
084
#2150
0116
#2151
171
#2152
070
#2160
128
#2161
1138
#2162
0139
#2163
184
#2164
1137
#2165
084
#2170
028
#2171
0138
#2172
1139
#2173
184
#2174
1137
#2175
084
#2180
128
#2181
1138
#2182
0139
#2183
184
#2184
1137
#2185
084
#2190
028
#2191
0138
#2192
1139
#2193
184
#2194
1137
#2195
084
#2200
128
#2201
1138
#2202
0139
#2203
184
#2204
1137
#2205
084
#2210
028
#2211
0138
#2212
1139
#2213
184
#2214
1137
#2215
075
#2216
084
#2217
077
#2220
128
#2221
1138
#2222
0139
#2223
184
#2224
1137
#2225
081
#2226
072
#2227
060
#2228
084
#2229
083
#2230
074
#2231
062
#2240
028
#2241
0138
#2242
1139
#2243
184
#2244
1137
#2245
078
#2246
066
#2247
063
#2248
084
#2249
080
#2250
068
#2251
065
#2260
128
#2261
1138
#2262
0139
#2263
184
#2264
1137
#2265
084
#2270
028
#2271
0138
#2272
1139
#2273
184
#2274
1137
#2275
069
#2276
084
#2277
071
#2280
128
#2281
1138
#2282
0139
#2283
184
#2284
1137
#2285
084
#2290
028
#2291
0138
#2292
1139
#2293
184
#2294
1137
#2295
084
#2300
128
#2301
1138
#2302
0139
#2303
184
#2304
1137
#2305
084
#2310
028
#2311
0138
#2312
1139
#2313
184
#2314
1137
#2315
084
#2320
128
#2321
1138
#2322
0139
#2323
184
#2324
1137
#2325
084
#2330
028
#2331
0138
#2332
1139
#2333
184
#2334
1137
#2335
084
#2340
128
#2341
1138
#2342
0139
#2343
184
#2344
1137
#2345
084
#2350
028
#2351
0138
#2352
1139
#2353
184
#2354
1137
#2355
084
#2360
128
#2361
1138
#2362
0139
#2363
184
#2364
1137
#2365
084
#2370
028
#2371
0138
#2372
1139
#2373
184
#2374
1137
#2375
084
#2380
128
#2381
1138
#2382
0139
#2383
184
#2384
1137
#2385
084
#2390
028
#2391
0138
#2392
1139
#2393
184
#2394
1137
#2395
084
#2400
128
#2401
1138
#2402
0139
#2403
184
#2404
1137
#2405
084
#2410
028
#2411
0138
#2412
1139
#2413
184
#2414
1137
#2415
084
#2420
128
#2421
1138
#2422
0139
#2423
184
#2424
1137
#2425
084
#2430
028
#2431
0138
#2432
1139
#2433
184
#2434
1137
#2435
084
#2440
128
#2441
1138
#2442
0139
#2443
184
#2444
1137
#2445
084
#2450
028
#2451
0138
#2452
1139
#2453
184
#2454
1137
#2455
084
#2460
128
#2461
1138
#2462
0139
#2463
184
#2464
1137
#2465
084
#2470
028
#2471
0138
#2472
1139
#2473
184
#2474
1137
#2475
084
#2480
128
#2481
1138
#2482
0139
#2483
184
#2484
1137
#2485
084
#2490
028
#2491
0138
#2492
1139
#2493
184
#2494
1137
#2495
084
#2500
128
#2501
1138
#2502
0139
#2503
184
#2504
1137
#2505
084
#2510
028
#2511
0138
#2512
1139
#2513
184
#2514
1137
#2515
084
#2520
128
#2521
1138
#2522
0139
#2523
184
#2524
1137
#2525
084
#2530
028
#2531
0138
#2532
1139
#2533
184
#2534
1137
#2535
084
#2540
128
#2541
1138
#2542
0139
#2543
184
#2544
1137
#2545
084
#2550
028
#2551
0138
#2552
1139
#2553
184
#2554
1137
#2555
084
#2560
128
#2561
1138
#2562
0139
#2563
184
#2564
1137
#2565
084
#2570
028
#2571
0138
#2572
1139
#2573
184
#2574
1137
#2575
084
#2580
128
#2581
1138
#2582
0139
#2583
184
#2584
1137
#2585
084
#2590
028
#2591
0138
#2592
1139
#2593
184
#2594
1137
#2595
084
#2600
128
#2601
1138
